<mxfile host="app.diagrams.net" modified="2024-01-01T14:35:01.043Z" agent="Mozilla/5.0 (Windows NT 10.0; Win64; x64) AppleWebKit/537.36 (KHTML, like Gecko) Chrome/120.0.0.0 Safari/537.36" etag="XQeARDPUC2fR2J49Z2bP" version="22.1.16" type="device">
  <diagram name="Page-1" id="cTyqvdOj2VGxzEVGvm6Z">
    <mxGraphModel dx="2610" dy="515" grid="0" gridSize="10" guides="1" tooltips="1" connect="1" arrows="1" fold="1" page="1" pageScale="1" pageWidth="1654" pageHeight="2336" math="0" shadow="0">
      <root>
        <mxCell id="0" />
        <mxCell id="1" parent="0" />
        <mxCell id="TtB3UbT7MragoJOzSrKV-155" value="" style="endArrow=classic;html=1;rounded=0;startArrow=oval;startFill=1;strokeWidth=3;endFill=1;" edge="1" parent="1">
          <mxGeometry width="50" height="50" relative="1" as="geometry">
            <mxPoint x="480" y="1800" as="sourcePoint" />
            <mxPoint x="940" y="1800" as="targetPoint" />
          </mxGeometry>
        </mxCell>
        <mxCell id="TtB3UbT7MragoJOzSrKV-96" value="" style="endArrow=classic;html=1;rounded=0;startArrow=none;startFill=0;strokeWidth=3;entryX=0;entryY=1;entryDx=0;entryDy=0;" edge="1" parent="1" target="TtB3UbT7MragoJOzSrKV-97">
          <mxGeometry width="50" height="50" relative="1" as="geometry">
            <mxPoint x="1080" y="870" as="sourcePoint" />
            <mxPoint x="1190" y="920" as="targetPoint" />
          </mxGeometry>
        </mxCell>
        <mxCell id="TtB3UbT7MragoJOzSrKV-39" value="" style="endArrow=classic;html=1;rounded=0;startArrow=oval;startFill=1;strokeWidth=3;fillColor=#60a917;strokeColor=#2D7600;fontColor=#1B4700;" edge="1" parent="1">
          <mxGeometry width="50" height="50" relative="1" as="geometry">
            <mxPoint x="820" y="500" as="sourcePoint" />
            <mxPoint x="1120" y="500" as="targetPoint" />
          </mxGeometry>
        </mxCell>
        <mxCell id="TtB3UbT7MragoJOzSrKV-33" value="" style="endArrow=classic;html=1;rounded=0;startArrow=oval;startFill=1;strokeWidth=3;fillColor=#60a917;strokeColor=#2D7600;fontColor=#1B4700;" edge="1" parent="1">
          <mxGeometry width="50" height="50" relative="1" as="geometry">
            <mxPoint x="760" y="560" as="sourcePoint" />
            <mxPoint x="820" y="500" as="targetPoint" />
          </mxGeometry>
        </mxCell>
        <mxCell id="TtB3UbT7MragoJOzSrKV-42" value="Nhánh phụ" style="edgeLabel;html=1;align=center;verticalAlign=middle;resizable=0;points=[];fontSize=21;fontColor=#1B4700;" vertex="1" connectable="0" parent="1">
          <mxGeometry x="1060" y="480" as="geometry">
            <mxPoint x="5" y="-2" as="offset" />
          </mxGeometry>
        </mxCell>
        <mxCell id="TtB3UbT7MragoJOzSrKV-57" value="" style="endArrow=none;html=1;rounded=0;startArrow=oval;startFill=1;strokeWidth=3;endFill=0;" edge="1" parent="1" target="TtB3UbT7MragoJOzSrKV-56">
          <mxGeometry width="50" height="50" relative="1" as="geometry">
            <mxPoint x="620" y="1268" as="sourcePoint" />
            <mxPoint x="1260" y="1268" as="targetPoint" />
          </mxGeometry>
        </mxCell>
        <mxCell id="TtB3UbT7MragoJOzSrKV-55" value="" style="endArrow=classic;html=1;rounded=0;startArrow=oval;startFill=1;strokeWidth=3;fillColor=#60a917;strokeColor=#2D7600;entryX=0;entryY=0;entryDx=0;entryDy=0;" edge="1" parent="1" target="TtB3UbT7MragoJOzSrKV-56">
          <mxGeometry width="50" height="50" relative="1" as="geometry">
            <mxPoint x="1000" y="1208" as="sourcePoint" />
            <mxPoint x="1050" y="1228" as="targetPoint" />
          </mxGeometry>
        </mxCell>
        <mxCell id="TtB3UbT7MragoJOzSrKV-34" value="" style="endArrow=classic;html=1;rounded=0;startArrow=oval;startFill=1;strokeWidth=3;" edge="1" parent="1">
          <mxGeometry width="50" height="50" relative="1" as="geometry">
            <mxPoint x="600" y="560" as="sourcePoint" />
            <mxPoint x="1240" y="560" as="targetPoint" />
          </mxGeometry>
        </mxCell>
        <mxCell id="TtB3UbT7MragoJOzSrKV-41" value="Nhánh chính" style="edgeLabel;html=1;align=center;verticalAlign=middle;resizable=0;points=[];fontSize=21;" vertex="1" connectable="0" parent="TtB3UbT7MragoJOzSrKV-34">
          <mxGeometry x="0.6656" y="-4" relative="1" as="geometry">
            <mxPoint x="-233" y="16" as="offset" />
          </mxGeometry>
        </mxCell>
        <mxCell id="TtB3UbT7MragoJOzSrKV-2" value="" style="endArrow=classic;html=1;rounded=0;startArrow=oval;startFill=1;strokeWidth=2;" edge="1" parent="1">
          <mxGeometry width="50" height="50" relative="1" as="geometry">
            <mxPoint x="380" y="80" as="sourcePoint" />
            <mxPoint x="380" y="320" as="targetPoint" />
          </mxGeometry>
        </mxCell>
        <mxCell id="TtB3UbT7MragoJOzSrKV-1" value="" style="ellipse;whiteSpace=wrap;html=1;aspect=fixed;strokeWidth=3;fillColor=#1ba1e2;strokeColor=#006EAF;fontColor=#ffffff;" vertex="1" parent="1">
          <mxGeometry x="360" y="160" width="40" height="40" as="geometry" />
        </mxCell>
        <mxCell id="TtB3UbT7MragoJOzSrKV-9" value="" style="endArrow=classic;html=1;rounded=0;startArrow=oval;startFill=1;strokeWidth=2;" edge="1" parent="1">
          <mxGeometry width="50" height="50" relative="1" as="geometry">
            <mxPoint x="600" y="280" as="sourcePoint" />
            <mxPoint x="1160" y="280" as="targetPoint" />
          </mxGeometry>
        </mxCell>
        <mxCell id="TtB3UbT7MragoJOzSrKV-18" value="" style="group" vertex="1" connectable="0" parent="1">
          <mxGeometry x="640" y="260" width="200" height="40" as="geometry" />
        </mxCell>
        <mxCell id="TtB3UbT7MragoJOzSrKV-4" value="" style="ellipse;whiteSpace=wrap;html=1;aspect=fixed;strokeWidth=3;fillColor=#006EAF;strokeColor=#000000;fontColor=#ffffff;" vertex="1" parent="TtB3UbT7MragoJOzSrKV-18">
          <mxGeometry width="40" height="40" as="geometry" />
        </mxCell>
        <mxCell id="TtB3UbT7MragoJOzSrKV-7" value="" style="ellipse;whiteSpace=wrap;html=1;aspect=fixed;strokeWidth=3;fillColor=#006EAF;strokeColor=#000000;fontColor=#ffffff;" vertex="1" parent="TtB3UbT7MragoJOzSrKV-18">
          <mxGeometry x="80" width="40" height="40" as="geometry" />
        </mxCell>
        <mxCell id="TtB3UbT7MragoJOzSrKV-11" value="" style="ellipse;whiteSpace=wrap;html=1;aspect=fixed;strokeWidth=3;fillColor=#006EAF;strokeColor=#000000;fontColor=#ffffff;" vertex="1" parent="TtB3UbT7MragoJOzSrKV-18">
          <mxGeometry x="160" width="40" height="40" as="geometry" />
        </mxCell>
        <mxCell id="TtB3UbT7MragoJOzSrKV-19" value="" style="group" vertex="1" connectable="0" parent="1">
          <mxGeometry x="800" y="480" width="200" height="40" as="geometry" />
        </mxCell>
        <mxCell id="TtB3UbT7MragoJOzSrKV-59" value="" style="group" vertex="1" connectable="0" parent="TtB3UbT7MragoJOzSrKV-19">
          <mxGeometry width="200" height="40" as="geometry" />
        </mxCell>
        <mxCell id="TtB3UbT7MragoJOzSrKV-12" value="" style="ellipse;whiteSpace=wrap;html=1;aspect=fixed;strokeWidth=3;fillColor=#FFD966;strokeColor=#000000;fontColor=#ffffff;" vertex="1" parent="TtB3UbT7MragoJOzSrKV-59">
          <mxGeometry width="40" height="40" as="geometry" />
        </mxCell>
        <mxCell id="TtB3UbT7MragoJOzSrKV-13" value="" style="ellipse;whiteSpace=wrap;html=1;aspect=fixed;strokeWidth=3;fillColor=#FFD966;strokeColor=#000000;fontColor=#ffffff;" vertex="1" parent="TtB3UbT7MragoJOzSrKV-59">
          <mxGeometry x="80" width="40" height="40" as="geometry" />
        </mxCell>
        <mxCell id="TtB3UbT7MragoJOzSrKV-14" value="" style="ellipse;whiteSpace=wrap;html=1;aspect=fixed;strokeWidth=3;fillColor=#FFD966;strokeColor=#000000;fontColor=#ffffff;" vertex="1" parent="TtB3UbT7MragoJOzSrKV-59">
          <mxGeometry x="160" width="40" height="40" as="geometry" />
        </mxCell>
        <mxCell id="TtB3UbT7MragoJOzSrKV-15" value="" style="ellipse;whiteSpace=wrap;html=1;aspect=fixed;strokeWidth=3;fillColor=#FF0000;strokeColor=#000000;fontColor=#ffffff;" vertex="1" parent="1">
          <mxGeometry x="860" y="200" width="40" height="40" as="geometry" />
        </mxCell>
        <mxCell id="TtB3UbT7MragoJOzSrKV-16" value="" style="ellipse;whiteSpace=wrap;html=1;aspect=fixed;strokeWidth=3;fillColor=#FF0000;strokeColor=#000000;fontColor=#ffffff;" vertex="1" parent="1">
          <mxGeometry x="940" y="200" width="40" height="40" as="geometry" />
        </mxCell>
        <mxCell id="TtB3UbT7MragoJOzSrKV-17" value="" style="ellipse;whiteSpace=wrap;html=1;aspect=fixed;strokeWidth=3;fillColor=#FF0000;strokeColor=#000000;fontColor=#ffffff;" vertex="1" parent="1">
          <mxGeometry x="1020" y="200" width="40" height="40" as="geometry" />
        </mxCell>
        <mxCell id="TtB3UbT7MragoJOzSrKV-26" value="" style="group" vertex="1" connectable="0" parent="1">
          <mxGeometry x="140" y="400" width="200" height="40" as="geometry" />
        </mxCell>
        <mxCell id="TtB3UbT7MragoJOzSrKV-27" value="" style="ellipse;whiteSpace=wrap;html=1;aspect=fixed;strokeWidth=3;fillColor=#FFD966;strokeColor=#000000;fontColor=#ffffff;" vertex="1" parent="TtB3UbT7MragoJOzSrKV-26">
          <mxGeometry width="40" height="40" as="geometry" />
        </mxCell>
        <mxCell id="TtB3UbT7MragoJOzSrKV-37" style="edgeStyle=orthogonalEdgeStyle;rounded=0;orthogonalLoop=1;jettySize=auto;html=1;exitX=1;exitY=0.5;exitDx=0;exitDy=0;entryX=0;entryY=0.5;entryDx=0;entryDy=0;" edge="1" parent="TtB3UbT7MragoJOzSrKV-26" source="TtB3UbT7MragoJOzSrKV-28" target="TtB3UbT7MragoJOzSrKV-29">
          <mxGeometry relative="1" as="geometry" />
        </mxCell>
        <mxCell id="TtB3UbT7MragoJOzSrKV-28" value="" style="ellipse;whiteSpace=wrap;html=1;aspect=fixed;strokeWidth=3;fillColor=#FFD966;strokeColor=#000000;fontColor=#ffffff;" vertex="1" parent="TtB3UbT7MragoJOzSrKV-26">
          <mxGeometry x="80" width="40" height="40" as="geometry" />
        </mxCell>
        <mxCell id="TtB3UbT7MragoJOzSrKV-29" value="" style="ellipse;whiteSpace=wrap;html=1;aspect=fixed;strokeWidth=3;fillColor=#FFD966;strokeColor=#000000;fontColor=#ffffff;" vertex="1" parent="TtB3UbT7MragoJOzSrKV-26">
          <mxGeometry x="160" width="40" height="40" as="geometry" />
        </mxCell>
        <mxCell id="TtB3UbT7MragoJOzSrKV-30" value="" style="ellipse;whiteSpace=wrap;html=1;aspect=fixed;strokeWidth=3;fillColor=#FF0000;strokeColor=#000000;fontColor=#ffffff;" vertex="1" parent="1">
          <mxGeometry x="1200" y="340" width="40" height="40" as="geometry" />
        </mxCell>
        <mxCell id="TtB3UbT7MragoJOzSrKV-31" value="" style="ellipse;whiteSpace=wrap;html=1;aspect=fixed;strokeWidth=3;fillColor=#FF0000;strokeColor=#000000;fontColor=#ffffff;" vertex="1" parent="1">
          <mxGeometry x="1280" y="340" width="40" height="40" as="geometry" />
        </mxCell>
        <mxCell id="TtB3UbT7MragoJOzSrKV-32" value="" style="ellipse;whiteSpace=wrap;html=1;aspect=fixed;strokeWidth=3;fillColor=#FF0000;strokeColor=#000000;fontColor=#ffffff;" vertex="1" parent="1">
          <mxGeometry x="1360" y="340" width="40" height="40" as="geometry" />
        </mxCell>
        <mxCell id="TtB3UbT7MragoJOzSrKV-35" value="" style="group" vertex="1" connectable="0" parent="1">
          <mxGeometry x="660" y="540" width="120" height="40" as="geometry" />
        </mxCell>
        <mxCell id="TtB3UbT7MragoJOzSrKV-23" value="" style="ellipse;whiteSpace=wrap;html=1;aspect=fixed;strokeWidth=3;fillColor=#006EAF;strokeColor=#000000;fontColor=#ffffff;" vertex="1" parent="TtB3UbT7MragoJOzSrKV-35">
          <mxGeometry width="40" height="40" as="geometry" />
        </mxCell>
        <mxCell id="TtB3UbT7MragoJOzSrKV-24" value="" style="ellipse;whiteSpace=wrap;html=1;aspect=fixed;strokeWidth=3;fillColor=#006EAF;strokeColor=#000000;fontColor=#ffffff;" vertex="1" parent="TtB3UbT7MragoJOzSrKV-35">
          <mxGeometry x="80" width="40" height="40" as="geometry" />
        </mxCell>
        <mxCell id="TtB3UbT7MragoJOzSrKV-43" value="" style="endArrow=classic;html=1;rounded=0;startArrow=oval;startFill=1;strokeWidth=3;fillColor=#60a917;strokeColor=#2D7600;" edge="1" parent="1">
          <mxGeometry width="50" height="50" relative="1" as="geometry">
            <mxPoint x="840" y="1208" as="sourcePoint" />
            <mxPoint x="1000" y="1208" as="targetPoint" />
          </mxGeometry>
        </mxCell>
        <mxCell id="TtB3UbT7MragoJOzSrKV-44" value="" style="endArrow=classic;html=1;rounded=0;startArrow=none;startFill=0;strokeWidth=3;" edge="1" parent="1" source="TtB3UbT7MragoJOzSrKV-56">
          <mxGeometry width="50" height="50" relative="1" as="geometry">
            <mxPoint x="620" y="1268" as="sourcePoint" />
            <mxPoint x="1140" y="1268" as="targetPoint" />
          </mxGeometry>
        </mxCell>
        <mxCell id="TtB3UbT7MragoJOzSrKV-45" value="master" style="edgeLabel;html=1;align=center;verticalAlign=middle;resizable=0;points=[];fontSize=21;" vertex="1" connectable="0" parent="TtB3UbT7MragoJOzSrKV-44">
          <mxGeometry x="0.6656" y="-4" relative="1" as="geometry">
            <mxPoint x="-500" y="-24" as="offset" />
          </mxGeometry>
        </mxCell>
        <mxCell id="TtB3UbT7MragoJOzSrKV-46" value="" style="endArrow=classic;html=1;rounded=0;startArrow=oval;startFill=1;strokeWidth=3;fillColor=#60a917;strokeColor=#2D7600;" edge="1" parent="1">
          <mxGeometry width="50" height="50" relative="1" as="geometry">
            <mxPoint x="780" y="1268" as="sourcePoint" />
            <mxPoint x="840" y="1208" as="targetPoint" />
          </mxGeometry>
        </mxCell>
        <mxCell id="TtB3UbT7MragoJOzSrKV-47" value="" style="group" vertex="1" connectable="0" parent="1">
          <mxGeometry x="820" y="1188" width="200" height="40" as="geometry" />
        </mxCell>
        <mxCell id="TtB3UbT7MragoJOzSrKV-48" value="" style="ellipse;whiteSpace=wrap;html=1;aspect=fixed;strokeWidth=3;fillColor=#FFD966;strokeColor=#000000;fontColor=#ffffff;" vertex="1" parent="TtB3UbT7MragoJOzSrKV-47">
          <mxGeometry width="40" height="40" as="geometry" />
        </mxCell>
        <mxCell id="TtB3UbT7MragoJOzSrKV-49" value="" style="ellipse;whiteSpace=wrap;html=1;aspect=fixed;strokeWidth=3;fillColor=#FFD966;strokeColor=#000000;fontColor=#ffffff;" vertex="1" parent="TtB3UbT7MragoJOzSrKV-47">
          <mxGeometry x="80" width="40" height="40" as="geometry" />
        </mxCell>
        <mxCell id="TtB3UbT7MragoJOzSrKV-50" value="" style="ellipse;whiteSpace=wrap;html=1;aspect=fixed;strokeWidth=3;fillColor=#FFD966;strokeColor=#000000;fontColor=#ffffff;" vertex="1" parent="TtB3UbT7MragoJOzSrKV-47">
          <mxGeometry x="160" width="40" height="40" as="geometry" />
        </mxCell>
        <mxCell id="TtB3UbT7MragoJOzSrKV-51" value="" style="group" vertex="1" connectable="0" parent="1">
          <mxGeometry x="680" y="1248" width="120" height="40" as="geometry" />
        </mxCell>
        <mxCell id="TtB3UbT7MragoJOzSrKV-52" value="" style="ellipse;whiteSpace=wrap;html=1;aspect=fixed;strokeWidth=3;fillColor=#006EAF;strokeColor=#000000;fontColor=#ffffff;" vertex="1" parent="TtB3UbT7MragoJOzSrKV-51">
          <mxGeometry width="40" height="40" as="geometry" />
        </mxCell>
        <mxCell id="TtB3UbT7MragoJOzSrKV-53" value="" style="ellipse;whiteSpace=wrap;html=1;aspect=fixed;strokeWidth=3;fillColor=#006EAF;strokeColor=#000000;fontColor=#ffffff;" vertex="1" parent="TtB3UbT7MragoJOzSrKV-51">
          <mxGeometry x="80" width="40" height="40" as="geometry" />
        </mxCell>
        <mxCell id="TtB3UbT7MragoJOzSrKV-54" value="feature" style="edgeLabel;html=1;align=center;verticalAlign=middle;resizable=0;points=[];fontSize=21;fontColor=#1B4700;" vertex="1" connectable="0" parent="1">
          <mxGeometry x="1000" y="1168" as="geometry">
            <mxPoint x="-13" y="2" as="offset" />
          </mxGeometry>
        </mxCell>
        <mxCell id="TtB3UbT7MragoJOzSrKV-56" value="" style="ellipse;whiteSpace=wrap;html=1;aspect=fixed;strokeWidth=3;fillColor=#6600CC;strokeColor=#000000;fontColor=#ffffff;" vertex="1" parent="1">
          <mxGeometry x="1040" y="1248" width="40" height="40" as="geometry" />
        </mxCell>
        <mxCell id="TtB3UbT7MragoJOzSrKV-67" value="gộp code" style="edgeLabel;html=1;align=center;verticalAlign=middle;resizable=0;points=[];fontSize=21;fontColor=#6600CC;" vertex="1" connectable="0" parent="1">
          <mxGeometry x="1060" y="1308" as="geometry" />
        </mxCell>
        <mxCell id="TtB3UbT7MragoJOzSrKV-68" value="" style="endArrow=none;html=1;rounded=0;startArrow=oval;startFill=1;strokeWidth=3;endFill=0;" edge="1" parent="1" target="TtB3UbT7MragoJOzSrKV-82">
          <mxGeometry width="50" height="50" relative="1" as="geometry">
            <mxPoint x="600" y="790" as="sourcePoint" />
            <mxPoint x="1240" y="790" as="targetPoint" />
          </mxGeometry>
        </mxCell>
        <mxCell id="TtB3UbT7MragoJOzSrKV-69" value="" style="endArrow=classic;html=1;rounded=0;startArrow=oval;startFill=1;strokeWidth=3;fillColor=#60a917;strokeColor=#2D7600;entryX=0;entryY=0;entryDx=0;entryDy=0;" edge="1" parent="1" target="TtB3UbT7MragoJOzSrKV-82">
          <mxGeometry width="50" height="50" relative="1" as="geometry">
            <mxPoint x="980" y="730" as="sourcePoint" />
            <mxPoint x="1030" y="750" as="targetPoint" />
          </mxGeometry>
        </mxCell>
        <mxCell id="TtB3UbT7MragoJOzSrKV-71" value="" style="endArrow=classic;html=1;rounded=0;startArrow=none;startFill=0;strokeWidth=3;" edge="1" parent="1" source="TtB3UbT7MragoJOzSrKV-97">
          <mxGeometry width="50" height="50" relative="1" as="geometry">
            <mxPoint x="600" y="790" as="sourcePoint" />
            <mxPoint x="1240" y="790" as="targetPoint" />
          </mxGeometry>
        </mxCell>
        <mxCell id="TtB3UbT7MragoJOzSrKV-72" value="Nhánh chính" style="edgeLabel;html=1;align=center;verticalAlign=middle;resizable=0;points=[];fontSize=21;" vertex="1" connectable="0" parent="TtB3UbT7MragoJOzSrKV-71">
          <mxGeometry x="0.6656" y="-4" relative="1" as="geometry">
            <mxPoint x="-637" y="-24" as="offset" />
          </mxGeometry>
        </mxCell>
        <mxCell id="TtB3UbT7MragoJOzSrKV-73" value="" style="endArrow=classic;html=1;rounded=0;startArrow=oval;startFill=1;strokeWidth=3;fillColor=#60a917;strokeColor=#2D7600;" edge="1" parent="1">
          <mxGeometry width="50" height="50" relative="1" as="geometry">
            <mxPoint x="760" y="790" as="sourcePoint" />
            <mxPoint x="820" y="730" as="targetPoint" />
          </mxGeometry>
        </mxCell>
        <mxCell id="TtB3UbT7MragoJOzSrKV-74" value="" style="group" vertex="1" connectable="0" parent="1">
          <mxGeometry x="800" y="710" width="200" height="40" as="geometry" />
        </mxCell>
        <mxCell id="TtB3UbT7MragoJOzSrKV-181" value="" style="endArrow=none;html=1;rounded=0;startArrow=none;startFill=0;strokeWidth=3;fillColor=#60a917;strokeColor=#2D7600;fontColor=#1B4700;entryX=0;entryY=0.5;entryDx=0;entryDy=0;endFill=0;" edge="1" parent="TtB3UbT7MragoJOzSrKV-74" source="TtB3UbT7MragoJOzSrKV-75" target="TtB3UbT7MragoJOzSrKV-77">
          <mxGeometry width="50" height="50" relative="1" as="geometry">
            <mxPoint x="30" y="-200" as="sourcePoint" />
            <mxPoint x="330" y="-200" as="targetPoint" />
          </mxGeometry>
        </mxCell>
        <mxCell id="TtB3UbT7MragoJOzSrKV-75" value="" style="ellipse;whiteSpace=wrap;html=1;aspect=fixed;strokeWidth=3;fillColor=#FFD966;strokeColor=#000000;fontColor=#ffffff;" vertex="1" parent="TtB3UbT7MragoJOzSrKV-74">
          <mxGeometry width="40" height="40" as="geometry" />
        </mxCell>
        <mxCell id="TtB3UbT7MragoJOzSrKV-76" value="" style="ellipse;whiteSpace=wrap;html=1;aspect=fixed;strokeWidth=3;fillColor=#FFD966;strokeColor=#000000;fontColor=#ffffff;" vertex="1" parent="TtB3UbT7MragoJOzSrKV-74">
          <mxGeometry x="80" width="40" height="40" as="geometry" />
        </mxCell>
        <mxCell id="TtB3UbT7MragoJOzSrKV-77" value="" style="ellipse;whiteSpace=wrap;html=1;aspect=fixed;strokeWidth=3;fillColor=#FFD966;strokeColor=#000000;fontColor=#ffffff;" vertex="1" parent="TtB3UbT7MragoJOzSrKV-74">
          <mxGeometry x="160" width="40" height="40" as="geometry" />
        </mxCell>
        <mxCell id="TtB3UbT7MragoJOzSrKV-78" value="" style="group" vertex="1" connectable="0" parent="1">
          <mxGeometry x="660" y="770" width="120" height="40" as="geometry" />
        </mxCell>
        <mxCell id="TtB3UbT7MragoJOzSrKV-79" value="" style="ellipse;whiteSpace=wrap;html=1;aspect=fixed;strokeWidth=3;fillColor=#006EAF;strokeColor=#000000;fontColor=#ffffff;" vertex="1" parent="TtB3UbT7MragoJOzSrKV-78">
          <mxGeometry width="40" height="40" as="geometry" />
        </mxCell>
        <mxCell id="TtB3UbT7MragoJOzSrKV-80" value="" style="ellipse;whiteSpace=wrap;html=1;aspect=fixed;strokeWidth=3;fillColor=#006EAF;strokeColor=#000000;fontColor=#ffffff;" vertex="1" parent="TtB3UbT7MragoJOzSrKV-78">
          <mxGeometry x="80" width="40" height="40" as="geometry" />
        </mxCell>
        <mxCell id="TtB3UbT7MragoJOzSrKV-81" value="Nhánh phụ 1" style="edgeLabel;html=1;align=center;verticalAlign=middle;resizable=0;points=[];fontSize=21;fontColor=#1B4700;" vertex="1" connectable="0" parent="1">
          <mxGeometry x="900" y="691" as="geometry">
            <mxPoint x="8" y="-1" as="offset" />
          </mxGeometry>
        </mxCell>
        <mxCell id="TtB3UbT7MragoJOzSrKV-82" value="" style="ellipse;whiteSpace=wrap;html=1;aspect=fixed;strokeWidth=3;fillColor=#6600CC;strokeColor=#000000;fontColor=#ffffff;" vertex="1" parent="1">
          <mxGeometry x="1020" y="770" width="40" height="40" as="geometry" />
        </mxCell>
        <mxCell id="TtB3UbT7MragoJOzSrKV-84" value="" style="endArrow=classic;html=1;rounded=0;startArrow=none;startFill=0;strokeWidth=3;" edge="1" parent="1" source="TtB3UbT7MragoJOzSrKV-80" target="TtB3UbT7MragoJOzSrKV-91">
          <mxGeometry width="50" height="50" relative="1" as="geometry">
            <mxPoint x="680" y="870" as="sourcePoint" />
            <mxPoint x="760" y="870" as="targetPoint" />
          </mxGeometry>
        </mxCell>
        <mxCell id="TtB3UbT7MragoJOzSrKV-85" value="Nhánh phụ 2" style="edgeLabel;html=1;align=center;verticalAlign=middle;resizable=0;points=[];fontSize=21;" vertex="1" connectable="0" parent="TtB3UbT7MragoJOzSrKV-84">
          <mxGeometry x="0.6656" y="-4" relative="1" as="geometry">
            <mxPoint x="162" y="56" as="offset" />
          </mxGeometry>
        </mxCell>
        <mxCell id="TtB3UbT7MragoJOzSrKV-88" value="" style="endArrow=classic;html=1;rounded=0;startArrow=none;startFill=0;strokeWidth=3;" edge="1" parent="1" source="TtB3UbT7MragoJOzSrKV-91">
          <mxGeometry width="50" height="50" relative="1" as="geometry">
            <mxPoint x="760" y="870" as="sourcePoint" />
            <mxPoint x="1080" y="870" as="targetPoint" />
          </mxGeometry>
        </mxCell>
        <mxCell id="TtB3UbT7MragoJOzSrKV-91" value="" style="ellipse;whiteSpace=wrap;html=1;aspect=fixed;strokeWidth=3;fillColor=#FF0000;strokeColor=#000000;fontColor=#ffffff;" vertex="1" parent="1">
          <mxGeometry x="820" y="850" width="40" height="40" as="geometry" />
        </mxCell>
        <mxCell id="TtB3UbT7MragoJOzSrKV-92" value="" style="ellipse;whiteSpace=wrap;html=1;aspect=fixed;strokeWidth=3;fillColor=#FF0000;strokeColor=#000000;fontColor=#ffffff;" vertex="1" parent="1">
          <mxGeometry x="900" y="850" width="40" height="40" as="geometry" />
        </mxCell>
        <mxCell id="TtB3UbT7MragoJOzSrKV-94" value="" style="ellipse;whiteSpace=wrap;html=1;aspect=fixed;strokeWidth=3;fillColor=#FF0000;strokeColor=#000000;fontColor=#ffffff;" vertex="1" parent="1">
          <mxGeometry x="980" y="850" width="40" height="40" as="geometry" />
        </mxCell>
        <mxCell id="TtB3UbT7MragoJOzSrKV-95" value="" style="ellipse;whiteSpace=wrap;html=1;aspect=fixed;strokeWidth=3;fillColor=#FF0000;strokeColor=#000000;fontColor=#ffffff;" vertex="1" parent="1">
          <mxGeometry x="1060" y="850" width="40" height="40" as="geometry" />
        </mxCell>
        <mxCell id="TtB3UbT7MragoJOzSrKV-98" value="" style="endArrow=none;html=1;rounded=0;startArrow=none;startFill=0;strokeWidth=3;endFill=0;" edge="1" parent="1" source="TtB3UbT7MragoJOzSrKV-82" target="TtB3UbT7MragoJOzSrKV-97">
          <mxGeometry width="50" height="50" relative="1" as="geometry">
            <mxPoint x="1060" y="790" as="sourcePoint" />
            <mxPoint x="1240" y="790" as="targetPoint" />
          </mxGeometry>
        </mxCell>
        <mxCell id="TtB3UbT7MragoJOzSrKV-97" value="" style="ellipse;whiteSpace=wrap;html=1;aspect=fixed;strokeWidth=3;fillColor=#EA6B66;strokeColor=#000000;fontColor=#ffffff;" vertex="1" parent="1">
          <mxGeometry x="1120" y="770" width="40" height="40" as="geometry" />
        </mxCell>
        <mxCell id="TtB3UbT7MragoJOzSrKV-100" value="Branch cái đóe là gì?" style="text;html=1;align=center;verticalAlign=middle;resizable=0;points=[];autosize=1;strokeColor=none;fillColor=none;fontSize=26;" vertex="1" parent="1">
          <mxGeometry x="220" y="540" width="270" height="40" as="geometry" />
        </mxCell>
        <mxCell id="TtB3UbT7MragoJOzSrKV-101" value="&lt;h2 class=&quot;nx-font-semibold nx-tracking-tight nx-text-slate-900 dark:nx-text-slate-100 nx-mt-10 nx-border-b nx-pb-1 nx-text-3xl nx-border-neutral-200/70 contrast-more:nx-border-neutral-400 dark:nx-border-primary-100/10 contrast-more:dark:nx-border-neutral-400&quot; style=&quot;box-sizing: border-box; border-width: 0px 0px 1px; border-style: solid; border-color: rgba(229, 229, 229, 0.7); border-image: initial; --tw-border-spacing-x: 0; --tw-border-spacing-y: 0; --tw-translate-x: 0; --tw-translate-y: 0; --tw-rotate: 0; --tw-skew-x: 0; --tw-skew-y: 0; --tw-scale-x: 1; --tw-scale-y: 1; --tw-pan-x: ; --tw-pan-y: ; --tw-pinch-zoom: ; --tw-scroll-snap-strictness: proximity; --tw-gradient-from-position: ; --tw-gradient-via-position: ; --tw-gradient-to-position: ; --tw-ordinal: ; --tw-slashed-zero: ; --tw-numeric-figure: ; --tw-numeric-spacing: ; --tw-numeric-fraction: ; --tw-ring-inset: ; --tw-ring-offset-width: 0px; --tw-ring-offset-color: #fff; --tw-ring-color: rgba(59,130,246,.5); --tw-ring-offset-shadow: 0 0 transparent; --tw-ring-shadow: 0 0 transparent; --tw-shadow: 0 0 transparent; --tw-shadow-colored: 0 0 transparent; --tw-blur: ; --tw-brightness: ; --tw-contrast: ; --tw-grayscale: ; --tw-hue-rotate: ; --tw-invert: ; --tw-saturate: ; --tw-sepia: ; --tw-drop-shadow: ; --tw-backdrop-blur: ; --tw-backdrop-brightness: ; --tw-backdrop-contrast: ; --tw-backdrop-grayscale: ; --tw-backdrop-hue-rotate: ; --tw-backdrop-invert: ; --tw-backdrop-opacity: ; --tw-backdrop-saturate: ; --tw-backdrop-sepia: ; font-size: 1.875rem; font-weight: 600; margin: 2.5rem 0px 0px; padding-bottom: 0.25rem; letter-spacing: -0.015em; --tw-text-opacity: 1; color: rgba(15,23,42,var(--tw-text-opacity)); font-family: ui-sans-serif, system-ui, -apple-system, BlinkMacSystemFont, &amp;quot;Segoe UI&amp;quot;, Roboto, &amp;quot;Noto Sans&amp;quot;, Ubuntu, Cantarell, &amp;quot;Helvetica Neue&amp;quot;, Arial, sans-serif, &amp;quot;Apple Color Emoji&amp;quot;, &amp;quot;Segoe UI Emoji&amp;quot;, &amp;quot;Segoe UI Symbol&amp;quot;, &amp;quot;Noto Color Emoji&amp;quot;; font-style: normal; font-variant-ligatures: normal; font-variant-caps: normal; orphans: 2; text-align: start; text-indent: 0px; text-transform: none; widows: 2; word-spacing: 0px; -webkit-text-stroke-width: 0px; background-color: rgb(255, 255, 255); text-decoration-thickness: initial; text-decoration-style: initial; text-decoration-color: initial;&quot;&gt;Tại Sao Branch Quan Trọng&lt;/h2&gt;" style="text;whiteSpace=wrap;html=1;" vertex="1" parent="1">
          <mxGeometry x="100" y="720" width="390" height="100" as="geometry" />
        </mxCell>
        <mxCell id="TtB3UbT7MragoJOzSrKV-102" value="&lt;h2 class=&quot;nx-font-semibold nx-tracking-tight nx-text-slate-900 dark:nx-text-slate-100 nx-mt-10 nx-border-b nx-pb-1 nx-text-3xl nx-border-neutral-200/70 contrast-more:nx-border-neutral-400 dark:nx-border-primary-100/10 contrast-more:dark:nx-border-neutral-400&quot; style=&quot;box-sizing: border-box; border-width: 0px 0px 1px; border-style: solid; border-color: rgba(229, 229, 229, 0.7); border-image: initial; --tw-border-spacing-x: 0; --tw-border-spacing-y: 0; --tw-translate-x: 0; --tw-translate-y: 0; --tw-rotate: 0; --tw-skew-x: 0; --tw-skew-y: 0; --tw-scale-x: 1; --tw-scale-y: 1; --tw-pan-x: ; --tw-pan-y: ; --tw-pinch-zoom: ; --tw-scroll-snap-strictness: proximity; --tw-gradient-from-position: ; --tw-gradient-via-position: ; --tw-gradient-to-position: ; --tw-ordinal: ; --tw-slashed-zero: ; --tw-numeric-figure: ; --tw-numeric-spacing: ; --tw-numeric-fraction: ; --tw-ring-inset: ; --tw-ring-offset-width: 0px; --tw-ring-offset-color: #fff; --tw-ring-color: rgba(59,130,246,.5); --tw-ring-offset-shadow: 0 0 transparent; --tw-ring-shadow: 0 0 transparent; --tw-shadow: 0 0 transparent; --tw-shadow-colored: 0 0 transparent; --tw-blur: ; --tw-brightness: ; --tw-contrast: ; --tw-grayscale: ; --tw-hue-rotate: ; --tw-invert: ; --tw-saturate: ; --tw-sepia: ; --tw-drop-shadow: ; --tw-backdrop-blur: ; --tw-backdrop-brightness: ; --tw-backdrop-contrast: ; --tw-backdrop-grayscale: ; --tw-backdrop-hue-rotate: ; --tw-backdrop-invert: ; --tw-backdrop-opacity: ; --tw-backdrop-saturate: ; --tw-backdrop-sepia: ; font-size: 1.875rem; font-weight: 600; margin: 2.5rem 0px 0px; padding-bottom: 0.25rem; letter-spacing: -0.015em; --tw-text-opacity: 1; color: rgba(15,23,42,var(--tw-text-opacity)); font-family: ui-sans-serif, system-ui, -apple-system, BlinkMacSystemFont, &amp;quot;Segoe UI&amp;quot;, Roboto, &amp;quot;Noto Sans&amp;quot;, Ubuntu, Cantarell, &amp;quot;Helvetica Neue&amp;quot;, Arial, sans-serif, &amp;quot;Apple Color Emoji&amp;quot;, &amp;quot;Segoe UI Emoji&amp;quot;, &amp;quot;Segoe UI Symbol&amp;quot;, &amp;quot;Noto Color Emoji&amp;quot;; font-style: normal; font-variant-ligatures: normal; font-variant-caps: normal; orphans: 2; text-align: start; text-indent: 0px; text-transform: none; widows: 2; word-spacing: 0px; -webkit-text-stroke-width: 0px; background-color: rgb(255, 255, 255); text-decoration-thickness: initial; text-decoration-style: initial; text-decoration-color: initial;&quot;&gt;Default Branch (Nhánh Mặc Định)&lt;/h2&gt;" style="text;whiteSpace=wrap;html=1;" vertex="1" parent="1">
          <mxGeometry x="90" y="1180" width="480" height="100" as="geometry" />
        </mxCell>
        <mxCell id="TtB3UbT7MragoJOzSrKV-103" value="" style="endArrow=none;html=1;rounded=0;startArrow=oval;startFill=1;strokeWidth=3;endFill=0;" edge="1" parent="1">
          <mxGeometry width="50" height="50" relative="1" as="geometry">
            <mxPoint x="570" y="1542" as="sourcePoint" />
            <mxPoint x="810" y="1542" as="targetPoint" />
          </mxGeometry>
        </mxCell>
        <mxCell id="TtB3UbT7MragoJOzSrKV-104" value="" style="endArrow=classic;html=1;rounded=0;startArrow=none;startFill=0;strokeWidth=3;fillColor=#60a917;strokeColor=#2D7600;" edge="1" parent="1" source="TtB3UbT7MragoJOzSrKV-110">
          <mxGeometry width="50" height="50" relative="1" as="geometry">
            <mxPoint x="950" y="1482" as="sourcePoint" />
            <mxPoint x="900" y="1482" as="targetPoint" />
          </mxGeometry>
        </mxCell>
        <mxCell id="TtB3UbT7MragoJOzSrKV-106" value="" style="endArrow=classic;html=1;rounded=0;startArrow=none;startFill=0;strokeWidth=3;" edge="1" parent="1" source="TtB3UbT7MragoJOzSrKV-115">
          <mxGeometry width="50" height="50" relative="1" as="geometry">
            <mxPoint x="850" y="1542" as="sourcePoint" />
            <mxPoint x="920" y="1542" as="targetPoint" />
          </mxGeometry>
        </mxCell>
        <mxCell id="TtB3UbT7MragoJOzSrKV-107" value="master" style="edgeLabel;html=1;align=center;verticalAlign=middle;resizable=0;points=[];fontSize=21;" vertex="1" connectable="0" parent="TtB3UbT7MragoJOzSrKV-106">
          <mxGeometry x="0.6656" y="-4" relative="1" as="geometry">
            <mxPoint x="-312" y="-24" as="offset" />
          </mxGeometry>
        </mxCell>
        <mxCell id="TtB3UbT7MragoJOzSrKV-108" value="" style="endArrow=classic;html=1;rounded=0;startArrow=oval;startFill=1;strokeWidth=3;fillColor=#60a917;strokeColor=#2D7600;" edge="1" parent="1">
          <mxGeometry width="50" height="50" relative="1" as="geometry">
            <mxPoint x="730" y="1542" as="sourcePoint" />
            <mxPoint x="790" y="1482" as="targetPoint" />
          </mxGeometry>
        </mxCell>
        <mxCell id="TtB3UbT7MragoJOzSrKV-109" value="" style="group" vertex="1" connectable="0" parent="1">
          <mxGeometry x="770" y="1462" width="200" height="40" as="geometry" />
        </mxCell>
        <mxCell id="TtB3UbT7MragoJOzSrKV-110" value="" style="ellipse;whiteSpace=wrap;html=1;aspect=fixed;strokeWidth=3;fillColor=#FFD966;strokeColor=#000000;fontColor=#ffffff;" vertex="1" parent="TtB3UbT7MragoJOzSrKV-109">
          <mxGeometry width="40" height="40" as="geometry" />
        </mxCell>
        <mxCell id="TtB3UbT7MragoJOzSrKV-113" value="" style="group" vertex="1" connectable="0" parent="1">
          <mxGeometry x="630" y="1522" width="120" height="40" as="geometry" />
        </mxCell>
        <mxCell id="TtB3UbT7MragoJOzSrKV-114" value="" style="ellipse;whiteSpace=wrap;html=1;aspect=fixed;strokeWidth=3;fillColor=#006EAF;strokeColor=#000000;fontColor=#ffffff;" vertex="1" parent="TtB3UbT7MragoJOzSrKV-113">
          <mxGeometry width="40" height="40" as="geometry" />
        </mxCell>
        <mxCell id="TtB3UbT7MragoJOzSrKV-115" value="" style="ellipse;whiteSpace=wrap;html=1;aspect=fixed;strokeWidth=3;fillColor=#006EAF;strokeColor=#000000;fontColor=#ffffff;" vertex="1" parent="TtB3UbT7MragoJOzSrKV-113">
          <mxGeometry x="80" width="40" height="40" as="geometry" />
        </mxCell>
        <mxCell id="TtB3UbT7MragoJOzSrKV-116" value="nhanh_so_1 " style="edgeLabel;html=1;align=center;verticalAlign=middle;resizable=0;points=[];fontSize=21;fontColor=#1B4700;" vertex="1" connectable="0" parent="1">
          <mxGeometry x="910" y="1432" as="geometry">
            <mxPoint x="-13" y="2" as="offset" />
          </mxGeometry>
        </mxCell>
        <mxCell id="TtB3UbT7MragoJOzSrKV-119" value="&lt;h2 class=&quot;nx-font-semibold nx-tracking-tight nx-text-slate-900 dark:nx-text-slate-100 nx-mt-10 nx-border-b nx-pb-1 nx-text-3xl nx-border-neutral-200/70 contrast-more:nx-border-neutral-400 dark:nx-border-primary-100/10 contrast-more:dark:nx-border-neutral-400&quot; style=&quot;box-sizing: border-box; border-width: 0px 0px 1px; border-style: solid; border-color: rgba(229, 229, 229, 0.7); border-image: initial; --tw-border-spacing-x: 0; --tw-border-spacing-y: 0; --tw-translate-x: 0; --tw-translate-y: 0; --tw-rotate: 0; --tw-skew-x: 0; --tw-skew-y: 0; --tw-scale-x: 1; --tw-scale-y: 1; --tw-pan-x: ; --tw-pan-y: ; --tw-pinch-zoom: ; --tw-scroll-snap-strictness: proximity; --tw-gradient-from-position: ; --tw-gradient-via-position: ; --tw-gradient-to-position: ; --tw-ordinal: ; --tw-slashed-zero: ; --tw-numeric-figure: ; --tw-numeric-spacing: ; --tw-numeric-fraction: ; --tw-ring-inset: ; --tw-ring-offset-width: 0px; --tw-ring-offset-color: #fff; --tw-ring-color: rgba(59,130,246,.5); --tw-ring-offset-shadow: 0 0 transparent; --tw-ring-shadow: 0 0 transparent; --tw-shadow: 0 0 transparent; --tw-shadow-colored: 0 0 transparent; --tw-blur: ; --tw-brightness: ; --tw-contrast: ; --tw-grayscale: ; --tw-hue-rotate: ; --tw-invert: ; --tw-saturate: ; --tw-sepia: ; --tw-drop-shadow: ; --tw-backdrop-blur: ; --tw-backdrop-brightness: ; --tw-backdrop-contrast: ; --tw-backdrop-grayscale: ; --tw-backdrop-hue-rotate: ; --tw-backdrop-invert: ; --tw-backdrop-opacity: ; --tw-backdrop-saturate: ; --tw-backdrop-sepia: ; font-size: 1.875rem; font-weight: 600; margin: 2.5rem 0px 0px; padding-bottom: 0.25rem; letter-spacing: -0.015em; --tw-text-opacity: 1; color: rgba(15,23,42,var(--tw-text-opacity)); font-family: ui-sans-serif, system-ui, -apple-system, BlinkMacSystemFont, &amp;quot;Segoe UI&amp;quot;, Roboto, &amp;quot;Noto Sans&amp;quot;, Ubuntu, Cantarell, &amp;quot;Helvetica Neue&amp;quot;, Arial, sans-serif, &amp;quot;Apple Color Emoji&amp;quot;, &amp;quot;Segoe UI Emoji&amp;quot;, &amp;quot;Segoe UI Symbol&amp;quot;, &amp;quot;Noto Color Emoji&amp;quot;; font-style: normal; font-variant-ligatures: normal; font-variant-caps: normal; orphans: 2; text-align: start; text-indent: 0px; text-transform: none; widows: 2; word-spacing: 0px; -webkit-text-stroke-width: 0px; background-color: rgb(255, 255, 255); text-decoration-thickness: initial; text-decoration-style: initial; text-decoration-color: initial;&quot;&gt;Mô tả bài tập&lt;br&gt;&lt;/h2&gt;&lt;h2 style=&quot;box-sizing: border-box; border-width: 0px 0px 1px; border-style: solid; border-color: rgba(229, 229, 229, 0.7); border-image: initial; --tw-border-spacing-x: 0; --tw-border-spacing-y: 0; --tw-translate-x: 0; --tw-translate-y: 0; --tw-rotate: 0; --tw-skew-x: 0; --tw-skew-y: 0; --tw-scale-x: 1; --tw-scale-y: 1; --tw-pan-x: ; --tw-pan-y: ; --tw-pinch-zoom: ; --tw-scroll-snap-strictness: proximity; --tw-gradient-from-position: ; --tw-gradient-via-position: ; --tw-gradient-to-position: ; --tw-ordinal: ; --tw-slashed-zero: ; --tw-numeric-figure: ; --tw-numeric-spacing: ; --tw-numeric-fraction: ; --tw-ring-inset: ; --tw-ring-offset-width: 0px; --tw-ring-offset-color: #fff; --tw-ring-color: rgba(59,130,246,.5); --tw-ring-offset-shadow: 0 0 transparent; --tw-ring-shadow: 0 0 transparent; --tw-shadow: 0 0 transparent; --tw-shadow-colored: 0 0 transparent; --tw-blur: ; --tw-brightness: ; --tw-contrast: ; --tw-grayscale: ; --tw-hue-rotate: ; --tw-invert: ; --tw-saturate: ; --tw-sepia: ; --tw-drop-shadow: ; --tw-backdrop-blur: ; --tw-backdrop-brightness: ; --tw-backdrop-contrast: ; --tw-backdrop-grayscale: ; --tw-backdrop-hue-rotate: ; --tw-backdrop-invert: ; --tw-backdrop-opacity: ; --tw-backdrop-saturate: ; --tw-backdrop-sepia: ; font-size: 1.875rem; margin: 2.5rem 0px 0px; padding-bottom: 0.25rem; letter-spacing: -0.015em; --tw-text-opacity: 1; color: rgba(15,23,42,var(--tw-text-opacity)); font-family: ui-sans-serif, system-ui, -apple-system, BlinkMacSystemFont, &amp;quot;Segoe UI&amp;quot;, Roboto, &amp;quot;Noto Sans&amp;quot;, Ubuntu, Cantarell, &amp;quot;Helvetica Neue&amp;quot;, Arial, sans-serif, &amp;quot;Apple Color Emoji&amp;quot;, &amp;quot;Segoe UI Emoji&amp;quot;, &amp;quot;Segoe UI Symbol&amp;quot;, &amp;quot;Noto Color Emoji&amp;quot;; background-color: rgb(255, 255, 255);&quot; class=&quot;nx-font-semibold nx-tracking-tight nx-text-slate-900 dark:nx-text-slate-100 nx-mt-10 nx-border-b nx-pb-1 nx-text-3xl nx-border-neutral-200/70 contrast-more:nx-border-neutral-400 dark:nx-border-primary-100/10 contrast-more:dark:nx-border-neutral-400&quot;&gt;Chuyển Đổi Branch&lt;/h2&gt;" style="text;whiteSpace=wrap;html=1;" vertex="1" parent="1">
          <mxGeometry x="150" y="1450" width="200" height="100" as="geometry" />
        </mxCell>
        <mxCell id="TtB3UbT7MragoJOzSrKV-120" value="&lt;h2 class=&quot;nx-font-semibold nx-tracking-tight nx-text-slate-900 dark:nx-text-slate-100 nx-mt-10 nx-border-b nx-pb-1 nx-text-3xl nx-border-neutral-200/70 contrast-more:nx-border-neutral-400 dark:nx-border-primary-100/10 contrast-more:dark:nx-border-neutral-400&quot; style=&quot;box-sizing: border-box; border-width: 0px 0px 1px; border-style: solid; border-color: rgba(229, 229, 229, 0.7); border-image: initial; --tw-border-spacing-x: 0; --tw-border-spacing-y: 0; --tw-translate-x: 0; --tw-translate-y: 0; --tw-rotate: 0; --tw-skew-x: 0; --tw-skew-y: 0; --tw-scale-x: 1; --tw-scale-y: 1; --tw-pan-x: ; --tw-pan-y: ; --tw-pinch-zoom: ; --tw-scroll-snap-strictness: proximity; --tw-gradient-from-position: ; --tw-gradient-via-position: ; --tw-gradient-to-position: ; --tw-ordinal: ; --tw-slashed-zero: ; --tw-numeric-figure: ; --tw-numeric-spacing: ; --tw-numeric-fraction: ; --tw-ring-inset: ; --tw-ring-offset-width: 0px; --tw-ring-offset-color: #fff; --tw-ring-color: rgba(59,130,246,.5); --tw-ring-offset-shadow: 0 0 transparent; --tw-ring-shadow: 0 0 transparent; --tw-shadow: 0 0 transparent; --tw-shadow-colored: 0 0 transparent; --tw-blur: ; --tw-brightness: ; --tw-contrast: ; --tw-grayscale: ; --tw-hue-rotate: ; --tw-invert: ; --tw-saturate: ; --tw-sepia: ; --tw-drop-shadow: ; --tw-backdrop-blur: ; --tw-backdrop-brightness: ; --tw-backdrop-contrast: ; --tw-backdrop-grayscale: ; --tw-backdrop-hue-rotate: ; --tw-backdrop-invert: ; --tw-backdrop-opacity: ; --tw-backdrop-saturate: ; --tw-backdrop-sepia: ; font-size: 1.875rem; font-weight: 600; margin: 2.5rem 0px 0px; padding-bottom: 0.25rem; letter-spacing: -0.015em; --tw-text-opacity: 1; color: rgba(15,23,42,var(--tw-text-opacity)); font-family: ui-sans-serif, system-ui, -apple-system, BlinkMacSystemFont, &amp;quot;Segoe UI&amp;quot;, Roboto, &amp;quot;Noto Sans&amp;quot;, Ubuntu, Cantarell, &amp;quot;Helvetica Neue&amp;quot;, Arial, sans-serif, &amp;quot;Apple Color Emoji&amp;quot;, &amp;quot;Segoe UI Emoji&amp;quot;, &amp;quot;Segoe UI Symbol&amp;quot;, &amp;quot;Noto Color Emoji&amp;quot;; font-style: normal; font-variant-ligatures: normal; font-variant-caps: normal; orphans: 2; text-align: start; text-indent: 0px; text-transform: none; widows: 2; word-spacing: 0px; -webkit-text-stroke-width: 0px; background-color: rgb(255, 255, 255); text-decoration-thickness: initial; text-decoration-style: initial; text-decoration-color: initial;&quot;&gt;Conflict - xung đột&lt;/h2&gt;" style="text;whiteSpace=wrap;html=1;" vertex="1" parent="1">
          <mxGeometry x="110" y="1710" width="280" height="100" as="geometry" />
        </mxCell>
        <mxCell id="TtB3UbT7MragoJOzSrKV-121" value="" style="endArrow=classic;html=1;rounded=0;startArrow=none;startFill=0;strokeWidth=3;exitX=1;exitY=0.5;exitDx=0;exitDy=0;" edge="1" parent="1" source="TtB3UbT7MragoJOzSrKV-142">
          <mxGeometry width="50" height="50" relative="1" as="geometry">
            <mxPoint x="960" y="1880" as="sourcePoint" />
            <mxPoint x="880" y="1880" as="targetPoint" />
          </mxGeometry>
        </mxCell>
        <mxCell id="TtB3UbT7MragoJOzSrKV-122" value="" style="endArrow=none;html=1;rounded=0;startArrow=oval;startFill=1;strokeWidth=3;endFill=0;" edge="1" parent="1">
          <mxGeometry width="50" height="50" relative="1" as="geometry">
            <mxPoint x="900" y="1800" as="sourcePoint" />
            <mxPoint x="900" y="1800" as="targetPoint" />
          </mxGeometry>
        </mxCell>
        <mxCell id="TtB3UbT7MragoJOzSrKV-132" value="" style="group" vertex="1" connectable="0" parent="1">
          <mxGeometry x="540" y="1780" width="120" height="40" as="geometry" />
        </mxCell>
        <mxCell id="TtB3UbT7MragoJOzSrKV-133" value="" style="ellipse;whiteSpace=wrap;html=1;aspect=fixed;strokeWidth=3;fillColor=#006EAF;strokeColor=#000000;fontColor=#ffffff;" vertex="1" parent="TtB3UbT7MragoJOzSrKV-132">
          <mxGeometry width="40" height="40" as="geometry" />
        </mxCell>
        <mxCell id="TtB3UbT7MragoJOzSrKV-134" value="" style="ellipse;whiteSpace=wrap;html=1;aspect=fixed;strokeWidth=3;fillColor=#006EAF;strokeColor=#000000;fontColor=#ffffff;" vertex="1" parent="TtB3UbT7MragoJOzSrKV-132">
          <mxGeometry x="80" width="40" height="40" as="geometry" />
        </mxCell>
        <mxCell id="TtB3UbT7MragoJOzSrKV-137" value="" style="endArrow=classic;html=1;rounded=0;startArrow=none;startFill=0;strokeWidth=3;exitX=1;exitY=1;exitDx=0;exitDy=0;" edge="1" parent="1" source="TtB3UbT7MragoJOzSrKV-133">
          <mxGeometry width="50" height="50" relative="1" as="geometry">
            <mxPoint x="560" y="1880" as="sourcePoint" />
            <mxPoint x="640" y="1880" as="targetPoint" />
          </mxGeometry>
        </mxCell>
        <mxCell id="TtB3UbT7MragoJOzSrKV-138" value="Nhánh phụ" style="edgeLabel;html=1;align=center;verticalAlign=middle;resizable=0;points=[];fontSize=21;" vertex="1" connectable="0" parent="TtB3UbT7MragoJOzSrKV-137">
          <mxGeometry x="0.6656" y="-4" relative="1" as="geometry">
            <mxPoint x="174" y="48" as="offset" />
          </mxGeometry>
        </mxCell>
        <mxCell id="TtB3UbT7MragoJOzSrKV-139" value="" style="endArrow=classic;html=1;rounded=0;startArrow=none;startFill=0;strokeWidth=3;entryX=1;entryY=0.5;entryDx=0;entryDy=0;" edge="1" parent="1" target="TtB3UbT7MragoJOzSrKV-142">
          <mxGeometry width="50" height="50" relative="1" as="geometry">
            <mxPoint x="640" y="1880" as="sourcePoint" />
            <mxPoint x="960" y="1880" as="targetPoint" />
          </mxGeometry>
        </mxCell>
        <mxCell id="TtB3UbT7MragoJOzSrKV-140" value="" style="ellipse;whiteSpace=wrap;html=1;aspect=fixed;strokeWidth=3;fillColor=#FF0000;strokeColor=#000000;fontColor=#ffffff;" vertex="1" parent="1">
          <mxGeometry x="620" y="1860" width="40" height="40" as="geometry" />
        </mxCell>
        <mxCell id="TtB3UbT7MragoJOzSrKV-141" value="" style="ellipse;whiteSpace=wrap;html=1;aspect=fixed;strokeWidth=3;fillColor=#FF0000;strokeColor=#000000;fontColor=#ffffff;" vertex="1" parent="1">
          <mxGeometry x="700" y="1860" width="40" height="40" as="geometry" />
        </mxCell>
        <mxCell id="TtB3UbT7MragoJOzSrKV-142" value="" style="ellipse;whiteSpace=wrap;html=1;aspect=fixed;strokeWidth=3;fillColor=#FF0000;strokeColor=#000000;fontColor=#ffffff;" vertex="1" parent="1">
          <mxGeometry x="780" y="1860" width="40" height="40" as="geometry" />
        </mxCell>
        <mxCell id="TtB3UbT7MragoJOzSrKV-147" value="" style="ellipse;whiteSpace=wrap;html=1;aspect=fixed;strokeWidth=3;fillColor=#006EAF;strokeColor=#000000;fontColor=#ffffff;" vertex="1" parent="1">
          <mxGeometry x="700" y="1780" width="40" height="40" as="geometry" />
        </mxCell>
        <mxCell id="TtB3UbT7MragoJOzSrKV-154" value="" style="ellipse;whiteSpace=wrap;html=1;aspect=fixed;strokeWidth=3;fillColor=#006EAF;strokeColor=#000000;fontColor=#ffffff;" vertex="1" parent="1">
          <mxGeometry x="780" y="1780" width="40" height="40" as="geometry" />
        </mxCell>
        <mxCell id="TtB3UbT7MragoJOzSrKV-157" value="" style="endArrow=none;html=1;rounded=0;startArrow=oval;startFill=1;strokeWidth=3;endFill=0;entryX=0;entryY=0.5;entryDx=0;entryDy=0;" edge="1" parent="1" target="TtB3UbT7MragoJOzSrKV-175">
          <mxGeometry width="50" height="50" relative="1" as="geometry">
            <mxPoint x="474" y="2038" as="sourcePoint" />
            <mxPoint x="860" y="2040" as="targetPoint" />
          </mxGeometry>
        </mxCell>
        <mxCell id="TtB3UbT7MragoJOzSrKV-158" value="" style="endArrow=classic;html=1;rounded=0;startArrow=none;startFill=0;strokeWidth=3;" edge="1" parent="1" source="TtB3UbT7MragoJOzSrKV-180">
          <mxGeometry width="50" height="50" relative="1" as="geometry">
            <mxPoint x="1021.29" y="2039.9999999999995" as="sourcePoint" />
            <mxPoint x="944" y="2040" as="targetPoint" />
          </mxGeometry>
        </mxCell>
        <mxCell id="TtB3UbT7MragoJOzSrKV-159" value="master" style="edgeLabel;html=1;align=center;verticalAlign=middle;resizable=0;points=[];fontSize=21;" vertex="1" connectable="0" parent="TtB3UbT7MragoJOzSrKV-158">
          <mxGeometry x="0.6656" y="-4" relative="1" as="geometry">
            <mxPoint x="-451" y="-27" as="offset" />
          </mxGeometry>
        </mxCell>
        <mxCell id="TtB3UbT7MragoJOzSrKV-160" value="" style="endArrow=none;html=1;rounded=0;startArrow=none;startFill=0;strokeWidth=3;endFill=0;entryX=0;entryY=0.5;entryDx=0;entryDy=0;" edge="1" parent="1" source="TtB3UbT7MragoJOzSrKV-175">
          <mxGeometry width="50" height="50" relative="1" as="geometry">
            <mxPoint x="480" y="2040" as="sourcePoint" />
            <mxPoint x="860" y="2040" as="targetPoint" />
          </mxGeometry>
        </mxCell>
        <mxCell id="TtB3UbT7MragoJOzSrKV-161" value="" style="endArrow=classic;html=1;rounded=0;startArrow=none;startFill=0;strokeWidth=3;exitX=1;exitY=0;exitDx=0;exitDy=0;" edge="1" parent="1" source="TtB3UbT7MragoJOzSrKV-171">
          <mxGeometry width="50" height="50" relative="1" as="geometry">
            <mxPoint x="820" y="2110" as="sourcePoint" />
            <mxPoint x="865.8578643762689" y="2054.142135623731" as="targetPoint" />
          </mxGeometry>
        </mxCell>
        <mxCell id="TtB3UbT7MragoJOzSrKV-162" value="" style="endArrow=none;html=1;rounded=0;startArrow=oval;startFill=1;strokeWidth=3;endFill=0;" edge="1" parent="1">
          <mxGeometry width="50" height="50" relative="1" as="geometry">
            <mxPoint x="900" y="2040" as="sourcePoint" />
            <mxPoint x="900" y="2040" as="targetPoint" />
          </mxGeometry>
        </mxCell>
        <mxCell id="TtB3UbT7MragoJOzSrKV-163" value="" style="group" vertex="1" connectable="0" parent="1">
          <mxGeometry x="540" y="2020" width="120" height="40" as="geometry" />
        </mxCell>
        <mxCell id="TtB3UbT7MragoJOzSrKV-164" value="" style="ellipse;whiteSpace=wrap;html=1;aspect=fixed;strokeWidth=3;fillColor=#006EAF;strokeColor=#000000;fontColor=#ffffff;" vertex="1" parent="TtB3UbT7MragoJOzSrKV-163">
          <mxGeometry width="40" height="40" as="geometry" />
        </mxCell>
        <mxCell id="TtB3UbT7MragoJOzSrKV-165" value="" style="ellipse;whiteSpace=wrap;html=1;aspect=fixed;strokeWidth=3;fillColor=#006EAF;strokeColor=#000000;fontColor=#ffffff;" vertex="1" parent="TtB3UbT7MragoJOzSrKV-163">
          <mxGeometry x="80" width="40" height="40" as="geometry" />
        </mxCell>
        <mxCell id="TtB3UbT7MragoJOzSrKV-166" value="" style="endArrow=classic;html=1;rounded=0;startArrow=none;startFill=0;strokeWidth=3;exitX=1;exitY=1;exitDx=0;exitDy=0;" edge="1" parent="1" source="TtB3UbT7MragoJOzSrKV-164">
          <mxGeometry width="50" height="50" relative="1" as="geometry">
            <mxPoint x="560" y="2120" as="sourcePoint" />
            <mxPoint x="640" y="2120" as="targetPoint" />
          </mxGeometry>
        </mxCell>
        <mxCell id="TtB3UbT7MragoJOzSrKV-167" value="Nhánh phụ" style="edgeLabel;html=1;align=center;verticalAlign=middle;resizable=0;points=[];fontSize=21;" vertex="1" connectable="0" parent="TtB3UbT7MragoJOzSrKV-166">
          <mxGeometry x="0.6656" y="-4" relative="1" as="geometry">
            <mxPoint x="174" y="48" as="offset" />
          </mxGeometry>
        </mxCell>
        <mxCell id="TtB3UbT7MragoJOzSrKV-168" value="" style="endArrow=classic;html=1;rounded=0;startArrow=none;startFill=0;strokeWidth=3;entryX=1;entryY=0.5;entryDx=0;entryDy=0;" edge="1" parent="1" target="TtB3UbT7MragoJOzSrKV-171">
          <mxGeometry width="50" height="50" relative="1" as="geometry">
            <mxPoint x="640" y="2120" as="sourcePoint" />
            <mxPoint x="960" y="2120" as="targetPoint" />
          </mxGeometry>
        </mxCell>
        <mxCell id="TtB3UbT7MragoJOzSrKV-169" value="" style="ellipse;whiteSpace=wrap;html=1;aspect=fixed;strokeWidth=3;fillColor=#FF0000;strokeColor=#000000;fontColor=#ffffff;" vertex="1" parent="1">
          <mxGeometry x="620" y="2100" width="40" height="40" as="geometry" />
        </mxCell>
        <mxCell id="TtB3UbT7MragoJOzSrKV-170" value="" style="ellipse;whiteSpace=wrap;html=1;aspect=fixed;strokeWidth=3;fillColor=#FF0000;strokeColor=#000000;fontColor=#ffffff;" vertex="1" parent="1">
          <mxGeometry x="700" y="2100" width="40" height="40" as="geometry" />
        </mxCell>
        <mxCell id="TtB3UbT7MragoJOzSrKV-171" value="" style="ellipse;whiteSpace=wrap;html=1;aspect=fixed;strokeWidth=3;fillColor=#FF0000;strokeColor=#000000;fontColor=#ffffff;" vertex="1" parent="1">
          <mxGeometry x="780" y="2100" width="40" height="40" as="geometry" />
        </mxCell>
        <mxCell id="TtB3UbT7MragoJOzSrKV-174" value="" style="ellipse;whiteSpace=wrap;html=1;aspect=fixed;strokeWidth=3;fillColor=#006EAF;strokeColor=#000000;fontColor=#ffffff;" vertex="1" parent="1">
          <mxGeometry x="700" y="2020" width="40" height="40" as="geometry" />
        </mxCell>
        <mxCell id="TtB3UbT7MragoJOzSrKV-175" value="" style="ellipse;whiteSpace=wrap;html=1;aspect=fixed;strokeWidth=3;fillColor=#006EAF;strokeColor=#000000;fontColor=#ffffff;" vertex="1" parent="1">
          <mxGeometry x="780" y="2020" width="40" height="40" as="geometry" />
        </mxCell>
        <mxCell id="TtB3UbT7MragoJOzSrKV-176" value="master" style="edgeLabel;html=1;align=center;verticalAlign=middle;resizable=0;points=[];fontSize=21;" vertex="1" connectable="0" parent="1">
          <mxGeometry x="490" y="1780" as="geometry" />
        </mxCell>
        <mxCell id="TtB3UbT7MragoJOzSrKV-180" value="&lt;font color=&quot;#ff0000&quot; style=&quot;font-size: 80px;&quot;&gt;X&lt;/font&gt;" style="ellipse;whiteSpace=wrap;html=1;aspect=fixed;strokeWidth=3;fillColor=#cce5ff;strokeColor=#36393d;fontSize=80;" vertex="1" parent="1">
          <mxGeometry x="860" y="2020" width="40" height="40" as="geometry" />
        </mxCell>
        <mxCell id="TtB3UbT7MragoJOzSrKV-182" value="gộp code" style="edgeLabel;html=1;align=center;verticalAlign=middle;resizable=0;points=[];fontSize=21;" vertex="1" connectable="0" parent="1">
          <mxGeometry x="878" y="1999" as="geometry" />
        </mxCell>
        <mxCell id="TtB3UbT7MragoJOzSrKV-198" value="&lt;h2 class=&quot;nx-font-semibold nx-tracking-tight nx-text-slate-900 dark:nx-text-slate-100 nx-mt-10 nx-border-b nx-pb-1 nx-text-3xl nx-border-neutral-200/70 contrast-more:nx-border-neutral-400 dark:nx-border-primary-100/10 contrast-more:dark:nx-border-neutral-400&quot; style=&quot;box-sizing: border-box; border-width: 0px 0px 1px; border-style: solid; border-color: rgba(229, 229, 229, 0.7); border-image: initial; --tw-border-spacing-x: 0; --tw-border-spacing-y: 0; --tw-translate-x: 0; --tw-translate-y: 0; --tw-rotate: 0; --tw-skew-x: 0; --tw-skew-y: 0; --tw-scale-x: 1; --tw-scale-y: 1; --tw-pan-x: ; --tw-pan-y: ; --tw-pinch-zoom: ; --tw-scroll-snap-strictness: proximity; --tw-gradient-from-position: ; --tw-gradient-via-position: ; --tw-gradient-to-position: ; --tw-ordinal: ; --tw-slashed-zero: ; --tw-numeric-figure: ; --tw-numeric-spacing: ; --tw-numeric-fraction: ; --tw-ring-inset: ; --tw-ring-offset-width: 0px; --tw-ring-offset-color: #fff; --tw-ring-color: rgba(59,130,246,.5); --tw-ring-offset-shadow: 0 0 transparent; --tw-ring-shadow: 0 0 transparent; --tw-shadow: 0 0 transparent; --tw-shadow-colored: 0 0 transparent; --tw-blur: ; --tw-brightness: ; --tw-contrast: ; --tw-grayscale: ; --tw-hue-rotate: ; --tw-invert: ; --tw-saturate: ; --tw-sepia: ; --tw-drop-shadow: ; --tw-backdrop-blur: ; --tw-backdrop-brightness: ; --tw-backdrop-contrast: ; --tw-backdrop-grayscale: ; --tw-backdrop-hue-rotate: ; --tw-backdrop-invert: ; --tw-backdrop-opacity: ; --tw-backdrop-saturate: ; --tw-backdrop-sepia: ; font-size: 1.875rem; font-weight: 600; margin: 2.5rem 0px 0px; padding-bottom: 0.25rem; letter-spacing: -0.015em; --tw-text-opacity: 1; color: rgba(15,23,42,var(--tw-text-opacity)); font-family: ui-sans-serif, system-ui, -apple-system, BlinkMacSystemFont, &amp;quot;Segoe UI&amp;quot;, Roboto, &amp;quot;Noto Sans&amp;quot;, Ubuntu, Cantarell, &amp;quot;Helvetica Neue&amp;quot;, Arial, sans-serif, &amp;quot;Apple Color Emoji&amp;quot;, &amp;quot;Segoe UI Emoji&amp;quot;, &amp;quot;Segoe UI Symbol&amp;quot;, &amp;quot;Noto Color Emoji&amp;quot;; font-style: normal; font-variant-ligatures: normal; font-variant-caps: normal; orphans: 2; text-align: start; text-indent: 0px; text-transform: none; widows: 2; word-spacing: 0px; -webkit-text-stroke-width: 0px; background-color: rgb(255, 255, 255); text-decoration-thickness: initial; text-decoration-style: initial; text-decoration-color: initial;&quot;&gt;Sử lý conflict&lt;/h2&gt;" style="text;whiteSpace=wrap;html=1;" vertex="1" parent="1">
          <mxGeometry x="92" y="2445" width="280" height="100" as="geometry" />
        </mxCell>
        <mxCell id="TtB3UbT7MragoJOzSrKV-199" value="" style="endArrow=classic;html=1;rounded=0;startArrow=oval;startFill=1;strokeWidth=3;endFill=1;" edge="1" parent="1">
          <mxGeometry width="50" height="50" relative="1" as="geometry">
            <mxPoint x="502" y="2876" as="sourcePoint" />
            <mxPoint x="962" y="2876" as="targetPoint" />
          </mxGeometry>
        </mxCell>
        <mxCell id="TtB3UbT7MragoJOzSrKV-200" value="" style="endArrow=classic;html=1;rounded=0;startArrow=none;startFill=0;strokeWidth=3;exitX=1;exitY=0.5;exitDx=0;exitDy=0;" edge="1" parent="1" source="TtB3UbT7MragoJOzSrKV-214">
          <mxGeometry width="50" height="50" relative="1" as="geometry">
            <mxPoint x="982" y="2956" as="sourcePoint" />
            <mxPoint x="961" y="2956" as="targetPoint" />
          </mxGeometry>
        </mxCell>
        <mxCell id="TtB3UbT7MragoJOzSrKV-201" value="" style="endArrow=none;html=1;rounded=0;startArrow=oval;startFill=1;strokeWidth=3;endFill=0;" edge="1" parent="1">
          <mxGeometry width="50" height="50" relative="1" as="geometry">
            <mxPoint x="922" y="2876" as="sourcePoint" />
            <mxPoint x="922" y="2876" as="targetPoint" />
          </mxGeometry>
        </mxCell>
        <mxCell id="TtB3UbT7MragoJOzSrKV-202" value="" style="group" vertex="1" connectable="0" parent="1">
          <mxGeometry x="562" y="2856" width="120" height="40" as="geometry" />
        </mxCell>
        <mxCell id="TtB3UbT7MragoJOzSrKV-203" value="" style="ellipse;whiteSpace=wrap;html=1;aspect=fixed;strokeWidth=3;fillColor=#006EAF;strokeColor=#000000;fontColor=#ffffff;" vertex="1" parent="TtB3UbT7MragoJOzSrKV-202">
          <mxGeometry width="40" height="40" as="geometry" />
        </mxCell>
        <mxCell id="TtB3UbT7MragoJOzSrKV-204" value="" style="ellipse;whiteSpace=wrap;html=1;aspect=fixed;strokeWidth=3;fillColor=#006EAF;strokeColor=#000000;fontColor=#ffffff;" vertex="1" parent="TtB3UbT7MragoJOzSrKV-202">
          <mxGeometry x="80" width="40" height="40" as="geometry" />
        </mxCell>
        <mxCell id="TtB3UbT7MragoJOzSrKV-205" value="" style="endArrow=classic;html=1;rounded=0;startArrow=none;startFill=0;strokeWidth=3;exitX=1;exitY=1;exitDx=0;exitDy=0;" edge="1" parent="1" source="TtB3UbT7MragoJOzSrKV-203">
          <mxGeometry width="50" height="50" relative="1" as="geometry">
            <mxPoint x="582" y="2956" as="sourcePoint" />
            <mxPoint x="662" y="2956" as="targetPoint" />
          </mxGeometry>
        </mxCell>
        <mxCell id="TtB3UbT7MragoJOzSrKV-207" value="" style="endArrow=classic;html=1;rounded=0;startArrow=none;startFill=0;strokeWidth=3;entryX=1;entryY=0.5;entryDx=0;entryDy=0;" edge="1" parent="1" target="TtB3UbT7MragoJOzSrKV-210">
          <mxGeometry width="50" height="50" relative="1" as="geometry">
            <mxPoint x="662" y="2956" as="sourcePoint" />
            <mxPoint x="982" y="2956" as="targetPoint" />
          </mxGeometry>
        </mxCell>
        <mxCell id="TtB3UbT7MragoJOzSrKV-208" value="" style="ellipse;whiteSpace=wrap;html=1;aspect=fixed;strokeWidth=3;fillColor=#FF0000;strokeColor=#000000;fontColor=#ffffff;" vertex="1" parent="1">
          <mxGeometry x="642" y="2936" width="40" height="40" as="geometry" />
        </mxCell>
        <mxCell id="TtB3UbT7MragoJOzSrKV-209" value="" style="ellipse;whiteSpace=wrap;html=1;aspect=fixed;strokeWidth=3;fillColor=#FF0000;strokeColor=#000000;fontColor=#ffffff;" vertex="1" parent="1">
          <mxGeometry x="722" y="2936" width="40" height="40" as="geometry" />
        </mxCell>
        <mxCell id="TtB3UbT7MragoJOzSrKV-210" value="" style="ellipse;whiteSpace=wrap;html=1;aspect=fixed;strokeWidth=3;fillColor=#FF0000;strokeColor=#000000;fontColor=#ffffff;" vertex="1" parent="1">
          <mxGeometry x="802" y="2936" width="40" height="40" as="geometry" />
        </mxCell>
        <mxCell id="TtB3UbT7MragoJOzSrKV-211" value="" style="ellipse;whiteSpace=wrap;html=1;aspect=fixed;strokeWidth=3;fillColor=#006EAF;strokeColor=#000000;fontColor=#ffffff;" vertex="1" parent="1">
          <mxGeometry x="722" y="2856" width="40" height="40" as="geometry" />
        </mxCell>
        <mxCell id="TtB3UbT7MragoJOzSrKV-212" value="" style="ellipse;whiteSpace=wrap;html=1;aspect=fixed;strokeWidth=3;fillColor=#006EAF;strokeColor=#000000;fontColor=#ffffff;" vertex="1" parent="1">
          <mxGeometry x="802" y="2856" width="40" height="40" as="geometry" />
        </mxCell>
        <mxCell id="TtB3UbT7MragoJOzSrKV-213" value="master" style="edgeLabel;html=1;align=center;verticalAlign=middle;resizable=0;points=[];fontSize=21;" vertex="1" connectable="0" parent="1">
          <mxGeometry x="512" y="2856" as="geometry" />
        </mxCell>
        <mxCell id="TtB3UbT7MragoJOzSrKV-215" value="" style="endArrow=classic;html=1;rounded=0;startArrow=none;startFill=0;strokeWidth=3;exitX=1;exitY=0.5;exitDx=0;exitDy=0;" edge="1" parent="1" source="TtB3UbT7MragoJOzSrKV-210" target="TtB3UbT7MragoJOzSrKV-214">
          <mxGeometry width="50" height="50" relative="1" as="geometry">
            <mxPoint x="842" y="2956" as="sourcePoint" />
            <mxPoint x="961" y="2956" as="targetPoint" />
          </mxGeometry>
        </mxCell>
        <mxCell id="TtB3UbT7MragoJOzSrKV-214" value="" style="ellipse;whiteSpace=wrap;html=1;aspect=fixed;strokeWidth=3;fillColor=#6a00ff;strokeColor=#3700CC;fontColor=#ffffff;" vertex="1" parent="1">
          <mxGeometry x="880" y="2936" width="40" height="40" as="geometry" />
        </mxCell>
        <mxCell id="TtB3UbT7MragoJOzSrKV-217" value="" style="endArrow=classic;html=1;rounded=0;startArrow=none;startFill=0;strokeWidth=3;exitX=1;exitY=1;exitDx=0;exitDy=0;entryX=0;entryY=0;entryDx=0;entryDy=0;" edge="1" parent="1" source="TtB3UbT7MragoJOzSrKV-212" target="TtB3UbT7MragoJOzSrKV-214">
          <mxGeometry width="50" height="50" relative="1" as="geometry">
            <mxPoint x="852" y="2966" as="sourcePoint" />
            <mxPoint x="890" y="2966" as="targetPoint" />
          </mxGeometry>
        </mxCell>
        <mxCell id="TtB3UbT7MragoJOzSrKV-218" value="gộp code nhánh chính vào nhánh phụ&lt;br&gt;Tiến hành resolve conflict trên nhánh phụ" style="edgeLabel;html=1;align=left;verticalAlign=middle;resizable=0;points=[];fontSize=21;" vertex="1" connectable="0" parent="1">
          <mxGeometry x="-163.99838840246798" y="2931.998465847024" as="geometry" />
        </mxCell>
        <mxCell id="TtB3UbT7MragoJOzSrKV-219" value="" style="endArrow=classic;html=1;rounded=0;startArrow=oval;startFill=1;strokeWidth=3;endFill=1;" edge="1" parent="1">
          <mxGeometry width="50" height="50" relative="1" as="geometry">
            <mxPoint x="496" y="2430" as="sourcePoint" />
            <mxPoint x="956" y="2430" as="targetPoint" />
          </mxGeometry>
        </mxCell>
        <mxCell id="TtB3UbT7MragoJOzSrKV-220" value="" style="endArrow=classic;html=1;rounded=0;startArrow=none;startFill=0;strokeWidth=3;exitX=1;exitY=0.5;exitDx=0;exitDy=0;" edge="1" parent="1" source="TtB3UbT7MragoJOzSrKV-230">
          <mxGeometry width="50" height="50" relative="1" as="geometry">
            <mxPoint x="976" y="2510" as="sourcePoint" />
            <mxPoint x="896" y="2510" as="targetPoint" />
          </mxGeometry>
        </mxCell>
        <mxCell id="TtB3UbT7MragoJOzSrKV-221" value="" style="endArrow=none;html=1;rounded=0;startArrow=oval;startFill=1;strokeWidth=3;endFill=0;" edge="1" parent="1">
          <mxGeometry width="50" height="50" relative="1" as="geometry">
            <mxPoint x="916" y="2430" as="sourcePoint" />
            <mxPoint x="916" y="2430" as="targetPoint" />
          </mxGeometry>
        </mxCell>
        <mxCell id="TtB3UbT7MragoJOzSrKV-222" value="" style="group" vertex="1" connectable="0" parent="1">
          <mxGeometry x="556" y="2410" width="120" height="40" as="geometry" />
        </mxCell>
        <mxCell id="TtB3UbT7MragoJOzSrKV-223" value="" style="ellipse;whiteSpace=wrap;html=1;aspect=fixed;strokeWidth=3;fillColor=#006EAF;strokeColor=#000000;fontColor=#ffffff;" vertex="1" parent="TtB3UbT7MragoJOzSrKV-222">
          <mxGeometry width="40" height="40" as="geometry" />
        </mxCell>
        <mxCell id="TtB3UbT7MragoJOzSrKV-224" value="" style="ellipse;whiteSpace=wrap;html=1;aspect=fixed;strokeWidth=3;fillColor=#006EAF;strokeColor=#000000;fontColor=#ffffff;" vertex="1" parent="TtB3UbT7MragoJOzSrKV-222">
          <mxGeometry x="80" width="40" height="40" as="geometry" />
        </mxCell>
        <mxCell id="TtB3UbT7MragoJOzSrKV-225" value="" style="endArrow=classic;html=1;rounded=0;startArrow=none;startFill=0;strokeWidth=3;exitX=1;exitY=1;exitDx=0;exitDy=0;" edge="1" parent="1" source="TtB3UbT7MragoJOzSrKV-223">
          <mxGeometry width="50" height="50" relative="1" as="geometry">
            <mxPoint x="576" y="2510" as="sourcePoint" />
            <mxPoint x="656" y="2510" as="targetPoint" />
          </mxGeometry>
        </mxCell>
        <mxCell id="TtB3UbT7MragoJOzSrKV-226" value="Nhánh phụ" style="edgeLabel;html=1;align=center;verticalAlign=middle;resizable=0;points=[];fontSize=21;" vertex="1" connectable="0" parent="TtB3UbT7MragoJOzSrKV-225">
          <mxGeometry x="0.6656" y="-4" relative="1" as="geometry">
            <mxPoint x="261" y="28" as="offset" />
          </mxGeometry>
        </mxCell>
        <mxCell id="TtB3UbT7MragoJOzSrKV-227" value="" style="endArrow=classic;html=1;rounded=0;startArrow=none;startFill=0;strokeWidth=3;entryX=1;entryY=0.5;entryDx=0;entryDy=0;" edge="1" parent="1" target="TtB3UbT7MragoJOzSrKV-230">
          <mxGeometry width="50" height="50" relative="1" as="geometry">
            <mxPoint x="656" y="2510" as="sourcePoint" />
            <mxPoint x="976" y="2510" as="targetPoint" />
          </mxGeometry>
        </mxCell>
        <mxCell id="TtB3UbT7MragoJOzSrKV-228" value="" style="ellipse;whiteSpace=wrap;html=1;aspect=fixed;strokeWidth=3;fillColor=#FF0000;strokeColor=#000000;fontColor=#ffffff;" vertex="1" parent="1">
          <mxGeometry x="636" y="2490" width="40" height="40" as="geometry" />
        </mxCell>
        <mxCell id="TtB3UbT7MragoJOzSrKV-229" value="" style="ellipse;whiteSpace=wrap;html=1;aspect=fixed;strokeWidth=3;fillColor=#FF0000;strokeColor=#000000;fontColor=#ffffff;" vertex="1" parent="1">
          <mxGeometry x="716" y="2490" width="40" height="40" as="geometry" />
        </mxCell>
        <mxCell id="TtB3UbT7MragoJOzSrKV-230" value="" style="ellipse;whiteSpace=wrap;html=1;aspect=fixed;strokeWidth=3;fillColor=#FF0000;strokeColor=#000000;fontColor=#ffffff;" vertex="1" parent="1">
          <mxGeometry x="796" y="2490" width="40" height="40" as="geometry" />
        </mxCell>
        <mxCell id="TtB3UbT7MragoJOzSrKV-231" value="" style="ellipse;whiteSpace=wrap;html=1;aspect=fixed;strokeWidth=3;fillColor=#006EAF;strokeColor=#000000;fontColor=#ffffff;" vertex="1" parent="1">
          <mxGeometry x="716" y="2410" width="40" height="40" as="geometry" />
        </mxCell>
        <mxCell id="TtB3UbT7MragoJOzSrKV-232" value="" style="ellipse;whiteSpace=wrap;html=1;aspect=fixed;strokeWidth=3;fillColor=#006EAF;strokeColor=#000000;fontColor=#ffffff;" vertex="1" parent="1">
          <mxGeometry x="796" y="2410" width="40" height="40" as="geometry" />
        </mxCell>
        <mxCell id="TtB3UbT7MragoJOzSrKV-233" value="" style="endArrow=none;html=1;rounded=0;startArrow=oval;startFill=1;strokeWidth=3;endFill=0;entryX=0;entryY=0.5;entryDx=0;entryDy=0;" edge="1" parent="1" target="TtB3UbT7MragoJOzSrKV-249">
          <mxGeometry width="50" height="50" relative="1" as="geometry">
            <mxPoint x="495" y="2643" as="sourcePoint" />
            <mxPoint x="881" y="2645" as="targetPoint" />
          </mxGeometry>
        </mxCell>
        <mxCell id="TtB3UbT7MragoJOzSrKV-234" value="" style="endArrow=classic;html=1;rounded=0;startArrow=none;startFill=0;strokeWidth=3;" edge="1" parent="1" source="TtB3UbT7MragoJOzSrKV-251">
          <mxGeometry width="50" height="50" relative="1" as="geometry">
            <mxPoint x="1042.29" y="2644.9999999999995" as="sourcePoint" />
            <mxPoint x="965" y="2645" as="targetPoint" />
          </mxGeometry>
        </mxCell>
        <mxCell id="TtB3UbT7MragoJOzSrKV-235" value="master" style="edgeLabel;html=1;align=center;verticalAlign=middle;resizable=0;points=[];fontSize=21;" vertex="1" connectable="0" parent="TtB3UbT7MragoJOzSrKV-234">
          <mxGeometry x="0.6656" y="-4" relative="1" as="geometry">
            <mxPoint x="-451" y="-27" as="offset" />
          </mxGeometry>
        </mxCell>
        <mxCell id="TtB3UbT7MragoJOzSrKV-236" value="" style="endArrow=none;html=1;rounded=0;startArrow=none;startFill=0;strokeWidth=3;endFill=0;entryX=0;entryY=0.5;entryDx=0;entryDy=0;" edge="1" parent="1" source="TtB3UbT7MragoJOzSrKV-249">
          <mxGeometry width="50" height="50" relative="1" as="geometry">
            <mxPoint x="501" y="2645" as="sourcePoint" />
            <mxPoint x="881" y="2645" as="targetPoint" />
          </mxGeometry>
        </mxCell>
        <mxCell id="TtB3UbT7MragoJOzSrKV-237" value="" style="endArrow=classic;html=1;rounded=0;startArrow=none;startFill=0;strokeWidth=3;exitX=1;exitY=0;exitDx=0;exitDy=0;" edge="1" parent="1" source="TtB3UbT7MragoJOzSrKV-247">
          <mxGeometry width="50" height="50" relative="1" as="geometry">
            <mxPoint x="841" y="2715" as="sourcePoint" />
            <mxPoint x="886.8578643762689" y="2659.142135623731" as="targetPoint" />
          </mxGeometry>
        </mxCell>
        <mxCell id="TtB3UbT7MragoJOzSrKV-238" value="" style="endArrow=none;html=1;rounded=0;startArrow=oval;startFill=1;strokeWidth=3;endFill=0;" edge="1" parent="1">
          <mxGeometry width="50" height="50" relative="1" as="geometry">
            <mxPoint x="921" y="2645" as="sourcePoint" />
            <mxPoint x="921" y="2645" as="targetPoint" />
          </mxGeometry>
        </mxCell>
        <mxCell id="TtB3UbT7MragoJOzSrKV-239" value="" style="group" vertex="1" connectable="0" parent="1">
          <mxGeometry x="561" y="2625" width="120" height="40" as="geometry" />
        </mxCell>
        <mxCell id="TtB3UbT7MragoJOzSrKV-240" value="" style="ellipse;whiteSpace=wrap;html=1;aspect=fixed;strokeWidth=3;fillColor=#006EAF;strokeColor=#000000;fontColor=#ffffff;" vertex="1" parent="TtB3UbT7MragoJOzSrKV-239">
          <mxGeometry width="40" height="40" as="geometry" />
        </mxCell>
        <mxCell id="TtB3UbT7MragoJOzSrKV-241" value="" style="ellipse;whiteSpace=wrap;html=1;aspect=fixed;strokeWidth=3;fillColor=#006EAF;strokeColor=#000000;fontColor=#ffffff;" vertex="1" parent="TtB3UbT7MragoJOzSrKV-239">
          <mxGeometry x="80" width="40" height="40" as="geometry" />
        </mxCell>
        <mxCell id="TtB3UbT7MragoJOzSrKV-242" value="" style="endArrow=classic;html=1;rounded=0;startArrow=none;startFill=0;strokeWidth=3;exitX=1;exitY=1;exitDx=0;exitDy=0;" edge="1" parent="1" source="TtB3UbT7MragoJOzSrKV-240">
          <mxGeometry width="50" height="50" relative="1" as="geometry">
            <mxPoint x="581" y="2725" as="sourcePoint" />
            <mxPoint x="661" y="2725" as="targetPoint" />
          </mxGeometry>
        </mxCell>
        <mxCell id="TtB3UbT7MragoJOzSrKV-243" value="Nhánh phụ" style="edgeLabel;html=1;align=center;verticalAlign=middle;resizable=0;points=[];fontSize=21;" vertex="1" connectable="0" parent="TtB3UbT7MragoJOzSrKV-242">
          <mxGeometry x="0.6656" y="-4" relative="1" as="geometry">
            <mxPoint x="258" y="22" as="offset" />
          </mxGeometry>
        </mxCell>
        <mxCell id="TtB3UbT7MragoJOzSrKV-244" value="" style="endArrow=classic;html=1;rounded=0;startArrow=none;startFill=0;strokeWidth=3;entryX=1;entryY=0.5;entryDx=0;entryDy=0;" edge="1" parent="1" target="TtB3UbT7MragoJOzSrKV-247">
          <mxGeometry width="50" height="50" relative="1" as="geometry">
            <mxPoint x="661" y="2725" as="sourcePoint" />
            <mxPoint x="981" y="2725" as="targetPoint" />
          </mxGeometry>
        </mxCell>
        <mxCell id="TtB3UbT7MragoJOzSrKV-245" value="" style="ellipse;whiteSpace=wrap;html=1;aspect=fixed;strokeWidth=3;fillColor=#FF0000;strokeColor=#000000;fontColor=#ffffff;" vertex="1" parent="1">
          <mxGeometry x="641" y="2705" width="40" height="40" as="geometry" />
        </mxCell>
        <mxCell id="TtB3UbT7MragoJOzSrKV-246" value="" style="ellipse;whiteSpace=wrap;html=1;aspect=fixed;strokeWidth=3;fillColor=#FF0000;strokeColor=#000000;fontColor=#ffffff;" vertex="1" parent="1">
          <mxGeometry x="721" y="2705" width="40" height="40" as="geometry" />
        </mxCell>
        <mxCell id="TtB3UbT7MragoJOzSrKV-247" value="" style="ellipse;whiteSpace=wrap;html=1;aspect=fixed;strokeWidth=3;fillColor=#FF0000;strokeColor=#000000;fontColor=#ffffff;" vertex="1" parent="1">
          <mxGeometry x="801" y="2705" width="40" height="40" as="geometry" />
        </mxCell>
        <mxCell id="TtB3UbT7MragoJOzSrKV-248" value="" style="ellipse;whiteSpace=wrap;html=1;aspect=fixed;strokeWidth=3;fillColor=#006EAF;strokeColor=#000000;fontColor=#ffffff;" vertex="1" parent="1">
          <mxGeometry x="721" y="2625" width="40" height="40" as="geometry" />
        </mxCell>
        <mxCell id="TtB3UbT7MragoJOzSrKV-249" value="" style="ellipse;whiteSpace=wrap;html=1;aspect=fixed;strokeWidth=3;fillColor=#006EAF;strokeColor=#000000;fontColor=#ffffff;" vertex="1" parent="1">
          <mxGeometry x="801" y="2625" width="40" height="40" as="geometry" />
        </mxCell>
        <mxCell id="TtB3UbT7MragoJOzSrKV-250" value="master" style="edgeLabel;html=1;align=center;verticalAlign=middle;resizable=0;points=[];fontSize=21;" vertex="1" connectable="0" parent="1">
          <mxGeometry x="506" y="2410" as="geometry" />
        </mxCell>
        <mxCell id="TtB3UbT7MragoJOzSrKV-251" value="&lt;font color=&quot;#ff0000&quot; style=&quot;font-size: 80px;&quot;&gt;X&lt;/font&gt;" style="ellipse;whiteSpace=wrap;html=1;aspect=fixed;strokeWidth=3;fillColor=#cce5ff;strokeColor=#36393d;fontSize=80;" vertex="1" parent="1">
          <mxGeometry x="881" y="2625" width="40" height="40" as="geometry" />
        </mxCell>
        <mxCell id="TtB3UbT7MragoJOzSrKV-252" value="gộp code" style="edgeLabel;html=1;align=center;verticalAlign=middle;resizable=0;points=[];fontSize=21;" vertex="1" connectable="0" parent="1">
          <mxGeometry x="903" y="2600" as="geometry" />
        </mxCell>
        <mxCell id="TtB3UbT7MragoJOzSrKV-255" value="Nhánh phụ" style="edgeLabel;html=1;align=center;verticalAlign=middle;resizable=0;points=[];fontSize=21;" vertex="1" connectable="0" parent="1">
          <mxGeometry x="987.0016115975318" y="2975.998465847024" as="geometry" />
        </mxCell>
        <mxCell id="TtB3UbT7MragoJOzSrKV-256" value="" style="endArrow=classic;html=1;rounded=0;startArrow=oval;startFill=1;strokeWidth=3;endFill=1;" edge="1" parent="1">
          <mxGeometry width="50" height="50" relative="1" as="geometry">
            <mxPoint x="509" y="3064" as="sourcePoint" />
            <mxPoint x="1080" y="3067" as="targetPoint" />
          </mxGeometry>
        </mxCell>
        <mxCell id="TtB3UbT7MragoJOzSrKV-257" value="" style="endArrow=classic;html=1;rounded=0;startArrow=none;startFill=0;strokeWidth=3;entryX=0;entryY=1;entryDx=0;entryDy=0;" edge="1" parent="1" source="TtB3UbT7MragoJOzSrKV-271" target="TtB3UbT7MragoJOzSrKV-274">
          <mxGeometry width="50" height="50" relative="1" as="geometry">
            <mxPoint x="989" y="3144" as="sourcePoint" />
            <mxPoint x="968" y="3144" as="targetPoint" />
          </mxGeometry>
        </mxCell>
        <mxCell id="TtB3UbT7MragoJOzSrKV-258" value="" style="endArrow=none;html=1;rounded=0;startArrow=oval;startFill=1;strokeWidth=3;endFill=0;" edge="1" parent="1">
          <mxGeometry width="50" height="50" relative="1" as="geometry">
            <mxPoint x="929" y="3064" as="sourcePoint" />
            <mxPoint x="929" y="3064" as="targetPoint" />
          </mxGeometry>
        </mxCell>
        <mxCell id="TtB3UbT7MragoJOzSrKV-259" value="" style="group" vertex="1" connectable="0" parent="1">
          <mxGeometry x="569" y="3044" width="120" height="40" as="geometry" />
        </mxCell>
        <mxCell id="TtB3UbT7MragoJOzSrKV-260" value="" style="ellipse;whiteSpace=wrap;html=1;aspect=fixed;strokeWidth=3;fillColor=#006EAF;strokeColor=#000000;fontColor=#ffffff;" vertex="1" parent="TtB3UbT7MragoJOzSrKV-259">
          <mxGeometry width="40" height="40" as="geometry" />
        </mxCell>
        <mxCell id="TtB3UbT7MragoJOzSrKV-261" value="" style="ellipse;whiteSpace=wrap;html=1;aspect=fixed;strokeWidth=3;fillColor=#006EAF;strokeColor=#000000;fontColor=#ffffff;" vertex="1" parent="TtB3UbT7MragoJOzSrKV-259">
          <mxGeometry x="80" width="40" height="40" as="geometry" />
        </mxCell>
        <mxCell id="TtB3UbT7MragoJOzSrKV-262" value="" style="endArrow=classic;html=1;rounded=0;startArrow=none;startFill=0;strokeWidth=3;exitX=1;exitY=1;exitDx=0;exitDy=0;" edge="1" parent="1" source="TtB3UbT7MragoJOzSrKV-260">
          <mxGeometry width="50" height="50" relative="1" as="geometry">
            <mxPoint x="589" y="3144" as="sourcePoint" />
            <mxPoint x="669" y="3144" as="targetPoint" />
          </mxGeometry>
        </mxCell>
        <mxCell id="TtB3UbT7MragoJOzSrKV-263" value="" style="endArrow=classic;html=1;rounded=0;startArrow=none;startFill=0;strokeWidth=3;entryX=1;entryY=0.5;entryDx=0;entryDy=0;" edge="1" parent="1" target="TtB3UbT7MragoJOzSrKV-266">
          <mxGeometry width="50" height="50" relative="1" as="geometry">
            <mxPoint x="669" y="3144" as="sourcePoint" />
            <mxPoint x="989" y="3144" as="targetPoint" />
          </mxGeometry>
        </mxCell>
        <mxCell id="TtB3UbT7MragoJOzSrKV-264" value="" style="ellipse;whiteSpace=wrap;html=1;aspect=fixed;strokeWidth=3;fillColor=#FF0000;strokeColor=#000000;fontColor=#ffffff;" vertex="1" parent="1">
          <mxGeometry x="649" y="3124" width="40" height="40" as="geometry" />
        </mxCell>
        <mxCell id="TtB3UbT7MragoJOzSrKV-265" value="" style="ellipse;whiteSpace=wrap;html=1;aspect=fixed;strokeWidth=3;fillColor=#FF0000;strokeColor=#000000;fontColor=#ffffff;" vertex="1" parent="1">
          <mxGeometry x="729" y="3124" width="40" height="40" as="geometry" />
        </mxCell>
        <mxCell id="TtB3UbT7MragoJOzSrKV-266" value="" style="ellipse;whiteSpace=wrap;html=1;aspect=fixed;strokeWidth=3;fillColor=#FF0000;strokeColor=#000000;fontColor=#ffffff;" vertex="1" parent="1">
          <mxGeometry x="809" y="3124" width="40" height="40" as="geometry" />
        </mxCell>
        <mxCell id="TtB3UbT7MragoJOzSrKV-267" value="" style="ellipse;whiteSpace=wrap;html=1;aspect=fixed;strokeWidth=3;fillColor=#006EAF;strokeColor=#000000;fontColor=#ffffff;" vertex="1" parent="1">
          <mxGeometry x="729" y="3044" width="40" height="40" as="geometry" />
        </mxCell>
        <mxCell id="TtB3UbT7MragoJOzSrKV-268" value="" style="ellipse;whiteSpace=wrap;html=1;aspect=fixed;strokeWidth=3;fillColor=#006EAF;strokeColor=#000000;fontColor=#ffffff;" vertex="1" parent="1">
          <mxGeometry x="809" y="3044" width="40" height="40" as="geometry" />
        </mxCell>
        <mxCell id="TtB3UbT7MragoJOzSrKV-269" value="master" style="edgeLabel;html=1;align=center;verticalAlign=middle;resizable=0;points=[];fontSize=21;" vertex="1" connectable="0" parent="1">
          <mxGeometry x="519" y="3044" as="geometry" />
        </mxCell>
        <mxCell id="TtB3UbT7MragoJOzSrKV-270" value="" style="endArrow=classic;html=1;rounded=0;startArrow=none;startFill=0;strokeWidth=3;exitX=1;exitY=0.5;exitDx=0;exitDy=0;" edge="1" parent="1" source="TtB3UbT7MragoJOzSrKV-266" target="TtB3UbT7MragoJOzSrKV-271">
          <mxGeometry width="50" height="50" relative="1" as="geometry">
            <mxPoint x="849" y="3144" as="sourcePoint" />
            <mxPoint x="968" y="3144" as="targetPoint" />
          </mxGeometry>
        </mxCell>
        <mxCell id="TtB3UbT7MragoJOzSrKV-271" value="" style="ellipse;whiteSpace=wrap;html=1;aspect=fixed;strokeWidth=3;fillColor=#6a00ff;strokeColor=#3700CC;fontColor=#ffffff;" vertex="1" parent="1">
          <mxGeometry x="887" y="3124" width="40" height="40" as="geometry" />
        </mxCell>
        <mxCell id="TtB3UbT7MragoJOzSrKV-272" value="" style="endArrow=classic;html=1;rounded=0;startArrow=none;startFill=0;strokeWidth=3;exitX=1;exitY=1;exitDx=0;exitDy=0;entryX=0;entryY=0;entryDx=0;entryDy=0;" edge="1" parent="1" source="TtB3UbT7MragoJOzSrKV-268" target="TtB3UbT7MragoJOzSrKV-271">
          <mxGeometry width="50" height="50" relative="1" as="geometry">
            <mxPoint x="859" y="3154" as="sourcePoint" />
            <mxPoint x="897" y="3154" as="targetPoint" />
          </mxGeometry>
        </mxCell>
        <mxCell id="TtB3UbT7MragoJOzSrKV-273" value="Nhánh phụ" style="edgeLabel;html=1;align=center;verticalAlign=middle;resizable=0;points=[];fontSize=21;" vertex="1" connectable="0" parent="1">
          <mxGeometry x="993.0016115975318" y="3150.998465847024" as="geometry" />
        </mxCell>
        <mxCell id="TtB3UbT7MragoJOzSrKV-274" value="" style="ellipse;whiteSpace=wrap;html=1;aspect=fixed;strokeWidth=3;fillColor=#008a00;strokeColor=#005700;fontColor=#ffffff;" vertex="1" parent="1">
          <mxGeometry x="967" y="3046" width="40" height="40" as="geometry" />
        </mxCell>
      </root>
    </mxGraphModel>
  </diagram>
</mxfile>
